(kicad_sch (version 20211123) (generator eeschema)

  (uuid e63e39d7-6ac0-4ffd-8aa3-1841a4541b55)

  (paper "A3")

  (title_block
    (title "KB-11B | M8130 | 00")
  )

  (lib_symbols
    (symbol "Graphic:Logo_Open_Hardware_Large" (pin_names (offset 1.016)) (in_bom yes) (on_board yes)
      (property "Reference" "#LOGO" (id 0) (at 0 12.7 0)
        (effects (font (size 1.27 1.27)) hide)
      )
      (property "Value" "Logo_Open_Hardware_Large" (id 1) (at 0 -10.16 0)
        (effects (font (size 1.27 1.27)) hide)
      )
      (property "Footprint" "" (id 2) (at 0 0 0)
        (effects (font (size 1.27 1.27)) hide)
      )
      (property "Datasheet" "~" (id 3) (at 0 0 0)
        (effects (font (size 1.27 1.27)) hide)
      )
      (property "ki_keywords" "Logo" (id 4) (at 0 0 0)
        (effects (font (size 1.27 1.27)) hide)
      )
      (property "ki_description" "Open Hardware logo, large" (id 5) (at 0 0 0)
        (effects (font (size 1.27 1.27)) hide)
      )
      (symbol "Logo_Open_Hardware_Large_1_1"
        (polyline
          (pts
            (xy 6.731 -8.7122)
            (xy 6.6294 -8.6614)
            (xy 6.35 -8.4836)
            (xy 5.9944 -8.255)
            (xy 5.5372 -7.9502)
            (xy 5.1054 -7.6454)
            (xy 4.7498 -7.4168)
            (xy 4.4958 -7.239)
            (xy 4.3942 -7.1882)
            (xy 4.318 -7.2136)
            (xy 4.1148 -7.3152)
            (xy 3.81 -7.4676)
            (xy 3.6322 -7.5692)
            (xy 3.3528 -7.6708)
            (xy 3.2258 -7.6962)
            (xy 3.2004 -7.6708)
            (xy 3.0988 -7.4676)
            (xy 2.9464 -7.0866)
            (xy 2.7178 -6.604)
            (xy 2.4892 -6.0452)
            (xy 2.2352 -5.4356)
            (xy 1.9558 -4.826)
            (xy 1.7272 -4.2164)
            (xy 1.4986 -3.683)
            (xy 1.3208 -3.2512)
            (xy 1.2192 -2.9464)
            (xy 1.1684 -2.8194)
            (xy 1.1938 -2.794)
            (xy 1.3208 -2.667)
            (xy 1.5748 -2.4892)
            (xy 2.0828 -2.0574)
            (xy 2.6162 -1.397)
            (xy 2.921 -0.6604)
            (xy 3.048 0.1524)
            (xy 2.9464 0.9144)
            (xy 2.6416 1.6256)
            (xy 2.1336 2.286)
            (xy 1.524 2.7686)
            (xy 0.8128 3.0734)
            (xy 0 3.175)
            (xy -0.762 3.0988)
            (xy -1.4986 2.794)
            (xy -2.159 2.286)
            (xy -2.4384 1.9812)
            (xy -2.8194 1.3208)
            (xy -3.048 0.6096)
            (xy -3.0734 0.4318)
            (xy -3.0226 -0.3556)
            (xy -2.794 -1.0922)
            (xy -2.3876 -1.7526)
            (xy -1.8288 -2.3114)
            (xy -1.7526 -2.3622)
            (xy -1.4732 -2.5654)
            (xy -1.2954 -2.6924)
            (xy -1.1684 -2.8194)
            (xy -2.159 -5.207)
            (xy -2.3114 -5.588)
            (xy -2.5908 -6.2484)
            (xy -2.8194 -6.8072)
            (xy -3.0226 -7.2644)
            (xy -3.1496 -7.5692)
            (xy -3.2258 -7.6708)
            (xy -3.2258 -7.6962)
            (xy -3.302 -7.6962)
            (xy -3.4798 -7.6454)
            (xy -3.8354 -7.4676)
            (xy -4.0386 -7.366)
            (xy -4.2926 -7.239)
            (xy -4.4196 -7.1882)
            (xy -4.5212 -7.239)
            (xy -4.7498 -7.3914)
            (xy -5.1054 -7.6454)
            (xy -5.5372 -7.9248)
            (xy -5.9436 -8.2042)
            (xy -6.3246 -8.4582)
            (xy -6.604 -8.636)
            (xy -6.731 -8.7122)
            (xy -6.7564 -8.7122)
            (xy -6.858 -8.636)
            (xy -7.0866 -8.4582)
            (xy -7.4168 -8.1534)
            (xy -7.874 -7.6962)
            (xy -7.9502 -7.62)
            (xy -8.3312 -7.239)
            (xy -8.636 -6.9088)
            (xy -8.8392 -6.6802)
            (xy -8.9154 -6.5786)
            (xy -8.9154 -6.5786)
            (xy -8.8392 -6.4516)
            (xy -8.6614 -6.1722)
            (xy -8.4328 -5.7912)
            (xy -8.128 -5.3594)
            (xy -7.3152 -4.191)
            (xy -7.7724 -3.0988)
            (xy -7.8994 -2.7686)
            (xy -8.0772 -2.3622)
            (xy -8.2042 -2.0828)
            (xy -8.255 -1.9558)
            (xy -8.382 -1.905)
            (xy -8.6614 -1.8542)
            (xy -9.0932 -1.7526)
            (xy -9.6266 -1.651)
            (xy -10.1092 -1.5748)
            (xy -10.541 -1.4732)
            (xy -10.8712 -1.4224)
            (xy -11.0236 -1.397)
            (xy -11.049 -1.3716)
            (xy -11.0744 -1.2954)
            (xy -11.0998 -1.143)
            (xy -11.0998 -0.889)
            (xy -11.1252 -0.4572)
            (xy -11.1252 0.1524)
            (xy -11.1252 0.2286)
            (xy -11.0998 0.8128)
            (xy -11.0998 1.27)
            (xy -11.0744 1.5494)
            (xy -11.0744 1.6764)
            (xy -11.0744 1.6764)
            (xy -10.922 1.7018)
            (xy -10.6172 1.778)
            (xy -10.16 1.8542)
            (xy -9.652 1.9558)
            (xy -9.6012 1.9812)
            (xy -9.0932 2.0828)
            (xy -8.636 2.159)
            (xy -8.3312 2.2352)
            (xy -8.2042 2.286)
            (xy -8.1788 2.3114)
            (xy -8.0772 2.5146)
            (xy -7.9248 2.8448)
            (xy -7.747 3.2512)
            (xy -7.5692 3.6576)
            (xy -7.4168 4.0386)
            (xy -7.3152 4.318)
            (xy -7.2898 4.445)
            (xy -7.2898 4.445)
            (xy -7.366 4.572)
            (xy -7.5438 4.826)
            (xy -7.7978 5.207)
            (xy -8.128 5.6642)
            (xy -8.128 5.6896)
            (xy -8.4328 6.1468)
            (xy -8.6868 6.5278)
            (xy -8.8392 6.7818)
            (xy -8.9154 6.9088)
            (xy -8.9154 6.9088)
            (xy -8.8138 7.0358)
            (xy -8.5852 7.2898)
            (xy -8.255 7.6454)
            (xy -7.874 8.0264)
            (xy -7.747 8.1534)
            (xy -7.3152 8.5852)
            (xy -7.0104 8.8646)
            (xy -6.8326 8.9916)
            (xy -6.731 9.0424)
            (xy -6.731 9.0424)
            (xy -6.604 8.9408)
            (xy -6.3246 8.763)
            (xy -5.9436 8.509)
            (xy -5.4864 8.2042)
            (xy -5.461 8.1788)
            (xy -5.0038 7.874)
            (xy -4.6482 7.62)
            (xy -4.3688 7.4422)
            (xy -4.2672 7.3914)
            (xy -4.2418 7.3914)
            (xy -4.064 7.4422)
            (xy -3.7338 7.5438)
            (xy -3.3528 7.6962)
            (xy -2.9464 7.874)
            (xy -2.5654 8.0264)
            (xy -2.286 8.1534)
            (xy -2.159 8.2296)
            (xy -2.159 8.2296)
            (xy -2.1082 8.382)
            (xy -2.032 8.7122)
            (xy -1.9304 9.1694)
            (xy -1.8288 9.7282)
            (xy -1.8034 9.8044)
            (xy -1.7018 10.3378)
            (xy -1.6256 10.7696)
            (xy -1.5748 11.0744)
            (xy -1.524 11.2014)
            (xy -1.4478 11.2268)
            (xy -1.1938 11.2522)
            (xy -0.8128 11.2522)
            (xy -0.3302 11.2522)
            (xy 0.1524 11.2522)
            (xy 0.6604 11.2522)
            (xy 1.0668 11.2268)
            (xy 1.3716 11.2014)
            (xy 1.4986 11.176)
            (xy 1.4986 11.176)
            (xy 1.5494 11.0236)
            (xy 1.6256 10.6934)
            (xy 1.7018 10.2108)
            (xy 1.8288 9.6774)
            (xy 1.8288 9.5758)
            (xy 1.9304 9.0424)
            (xy 2.032 8.6106)
            (xy 2.0828 8.3058)
            (xy 2.1336 8.2042)
            (xy 2.159 8.1788)
            (xy 2.3876 8.0772)
            (xy 2.7432 7.9248)
            (xy 3.175 7.747)
            (xy 4.191 7.3406)
            (xy 5.461 8.2042)
            (xy 5.5626 8.2804)
            (xy 6.0198 8.5852)
            (xy 6.3754 8.8392)
            (xy 6.6294 8.9916)
            (xy 6.7564 9.0424)
            (xy 6.7564 9.0424)
            (xy 6.8834 8.9408)
            (xy 7.1374 8.7122)
            (xy 7.4676 8.382)
            (xy 7.8486 7.9756)
            (xy 8.1534 7.6962)
            (xy 8.4836 7.3406)
            (xy 8.7122 7.112)
            (xy 8.8392 6.9596)
            (xy 8.8646 6.858)
            (xy 8.8646 6.8072)
            (xy 8.7884 6.6802)
            (xy 8.6106 6.4008)
            (xy 8.3312 6.0198)
            (xy 8.0264 5.588)
            (xy 7.7978 5.207)
            (xy 7.5184 4.8006)
            (xy 7.3406 4.4958)
            (xy 7.2898 4.3434)
            (xy 7.2898 4.2926)
            (xy 7.3914 4.0386)
            (xy 7.5184 3.683)
            (xy 7.7216 3.2258)
            (xy 8.1534 2.2352)
            (xy 8.7884 2.1082)
            (xy 9.1948 2.0574)
            (xy 9.7536 1.9304)
            (xy 10.2616 1.8288)
            (xy 11.0998 1.6764)
            (xy 11.1252 -1.3208)
            (xy 10.9982 -1.3716)
            (xy 10.8712 -1.397)
            (xy 10.5664 -1.4732)
            (xy 10.1346 -1.5494)
            (xy 9.6266 -1.651)
            (xy 9.1948 -1.7272)
            (xy 8.7376 -1.8288)
            (xy 8.4328 -1.8796)
            (xy 8.2804 -1.905)
            (xy 8.255 -1.9558)
            (xy 8.1534 -2.159)
            (xy 7.9756 -2.5146)
            (xy 7.8232 -2.921)
            (xy 7.6454 -3.3274)
            (xy 7.493 -3.7338)
            (xy 7.366 -4.0132)
            (xy 7.3406 -4.191)
            (xy 7.3914 -4.2926)
            (xy 7.5692 -4.5466)
            (xy 7.7978 -4.9276)
            (xy 8.1026 -5.3594)
            (xy 8.4074 -5.7912)
            (xy 8.6614 -6.1722)
            (xy 8.8138 -6.4262)
            (xy 8.89 -6.5532)
            (xy 8.8646 -6.6548)
            (xy 8.6868 -6.858)
            (xy 8.3566 -7.1882)
            (xy 7.874 -7.6708)
            (xy 7.7978 -7.747)
            (xy 7.3914 -8.128)
            (xy 7.0612 -8.4328)
            (xy 6.8326 -8.636)
            (xy 6.731 -8.7122)
          )
          (stroke (width 0) (type default) (color 0 0 0 0))
          (fill (type outline))
        )
      )
    )
  )


  (text "Document Source :\nMP0KB11-C0_1170engDrw_Nov75.pdf" (at 13.97 17.78 0)
    (effects (font (size 1.27 1.27)) (justify left bottom))
    (uuid e90f3bee-055d-46e8-b6c3-eee72d448320)
  )

  (symbol (lib_id "Graphic:Logo_Open_Hardware_Large") (at 184.15 36.83 0) (unit 1)
    (in_bom yes) (on_board yes) (fields_autoplaced)
    (uuid e49a1fc6-e358-4f79-bd57-ad07a0a04c0a)
    (property "Reference" "OSHW_LOGO1" (id 0) (at 184.15 24.13 0)
      (effects (font (size 1.27 1.27)) hide)
    )
    (property "Value" "Logo_Open_Hardware_Large" (id 1) (at 184.15 46.99 0)
      (effects (font (size 1.27 1.27)) hide)
    )
    (property "Footprint" "Symbol:OSHW-Logo2_9.8x8mm_SilkScreen" (id 2) (at 184.15 36.83 0)
      (effects (font (size 1.27 1.27)) hide)
    )
    (property "Datasheet" "~" (id 3) (at 184.15 36.83 0)
      (effects (font (size 1.27 1.27)) hide)
    )
  )

  (sheet (at 17.78 24.13) (size 55.88 7.62) (fields_autoplaced)
    (stroke (width 0.1524) (type solid) (color 0 0 0 0))
    (fill (color 0 0 0 0.0000))
    (uuid 1f29d2e6-7cd1-4d55-a840-cbd748f8e68f)
    (property "Sheet name" "page 23 | Bus Register | Slot 6" (id 0) (at 17.78 23.4184 0)
      (effects (font (size 1.27 1.27)) (justify left bottom))
    )
    (property "Sheet file" "M8130-00.kicad_sch" (id 1) (at 17.78 32.3346 0)
      (effects (font (size 1.27 1.27)) (justify left top))
    )
  )

  (sheet (at 92.71 24.13) (size 55.88 7.62) (fields_autoplaced)
    (stroke (width 0.1524) (type solid) (color 0 0 0 0))
    (fill (color 0 0 0 0.0000))
    (uuid 1f4a880c-d4aa-4702-ac37-d23785be0851)
    (property "Sheet name" "Capacitors" (id 0) (at 92.71 23.4184 0)
      (effects (font (size 1.27 1.27)) (justify left bottom))
    )
    (property "Sheet file" "capacitors.kicad_sch" (id 1) (at 92.71 32.3346 0)
      (effects (font (size 1.27 1.27)) (justify left top))
    )
  )

  (sheet (at 17.78 38.1) (size 55.88 7.62) (fields_autoplaced)
    (stroke (width 0.1524) (type solid) (color 0 0 0 0))
    (fill (color 0 0 0 0.0000))
    (uuid 35e08602-8830-48c6-8e4c-379631e224ea)
    (property "Sheet name" "page 24 | B,A,&Bus Addr. Mux (05:00) | Slot 6" (id 0) (at 17.78 37.3884 0)
      (effects (font (size 1.27 1.27)) (justify left bottom))
    )
    (property "Sheet file" "M8130-01.kicad_sch" (id 1) (at 17.78 46.3046 0)
      (effects (font (size 1.27 1.27)) (justify left top))
    )
  )

  (sheet (at 17.78 83.82) (size 55.88 7.62) (fields_autoplaced)
    (stroke (width 0.1524) (type solid) (color 0 0 0 0))
    (fill (color 0 0 0 0.0000))
    (uuid 3f39fe18-c5ca-49b9-9555-18c12117d390)
    (property "Sheet name" "page 27 | Trap Vectors, Start Vector, K1MX | Slot 6" (id 0) (at 17.78 83.1084 0)
      (effects (font (size 1.27 1.27)) (justify left bottom))
    )
    (property "Sheet file" "M8130-04.kicad_sch" (id 1) (at 17.78 92.0246 0)
      (effects (font (size 1.27 1.27)) (justify left top))
    )
  )

  (sheet (at 17.78 53.34) (size 55.88 7.62) (fields_autoplaced)
    (stroke (width 0.1524) (type solid) (color 0 0 0 0))
    (fill (color 0 0 0 0.0000))
    (uuid 42d4e4f7-5d0c-497f-bb87-b30c04ad9f86)
    (property "Sheet name" "page 25 | B,A,&Bus Addr. Mux (11:06) | Slot 6" (id 0) (at 17.78 52.6284 0)
      (effects (font (size 1.27 1.27)) (justify left bottom))
    )
    (property "Sheet file" "M8130-02.kicad_sch" (id 1) (at 17.78 61.5446 0)
      (effects (font (size 1.27 1.27)) (justify left top))
    )
  )

  (sheet (at 17.78 99.06) (size 55.88 8.89) (fields_autoplaced)
    (stroke (width 0.1524) (type solid) (color 0 0 0 0))
    (fill (color 0 0 0 0.0000))
    (uuid 5f417d86-4cd0-4426-a8a7-befaa992f0f0)
    (property "Sheet name" "page 28 | ALU (07:00), shifter (06:00), PCA & PCB (05:00) | Slot 6" (id 0) (at 17.78 98.3484 0)
      (effects (font (size 1.27 1.27)) (justify left bottom))
    )
    (property "Sheet file" "M8130-05.kicad_sch" (id 1) (at 17.78 108.5346 0)
      (effects (font (size 1.27 1.27)) (justify left top))
    )
  )

  (sheet (at 92.71 38.1) (size 55.88 7.62) (fields_autoplaced)
    (stroke (width 0.1524) (type solid) (color 0 0 0 0))
    (fill (color 0 0 0 0.0000))
    (uuid 9bd2903d-8641-4e3c-bd25-a7a8083176bb)
    (property "Sheet name" "Connectors" (id 0) (at 92.71 37.3884 0)
      (effects (font (size 1.27 1.27)) (justify left bottom))
    )
    (property "Sheet file" "Connectors.kicad_sch" (id 1) (at 92.71 46.3046 0)
      (effects (font (size 1.27 1.27)) (justify left top))
    )
  )

  (sheet (at 17.78 115.57) (size 55.88 8.89) (fields_autoplaced)
    (stroke (width 0.1524) (type solid) (color 0 0 0 0))
    (fill (color 0 0 0 0.0000))
    (uuid ce0d1a0b-4f10-4b36-b5ac-c80729f9351e)
    (property "Sheet name" "page 29 | ALU (15:08), shifter (14:08), PCA & PCB (15:06) | Slot 6" (id 0) (at 17.78 114.8584 0)
      (effects (font (size 1.27 1.27)) (justify left bottom))
    )
    (property "Sheet file" "M8130-06.kicad_sch" (id 1) (at 17.78 125.0446 0)
      (effects (font (size 1.27 1.27)) (justify left top))
    )
  )

  (sheet (at 17.78 132.08) (size 55.88 8.89) (fields_autoplaced)
    (stroke (width 0.1524) (type solid) (color 0 0 0 0))
    (fill (color 0 0 0 0.0000))
    (uuid dbed59f0-bc8e-48d6-8f9b-2971a76ee3ea)
    (property "Sheet name" "page 30 | Shifter (15:07), PCA & PCB clocks | Slot 6" (id 0) (at 17.78 131.3684 0)
      (effects (font (size 1.27 1.27)) (justify left bottom))
    )
    (property "Sheet file" "M8130-07.kicad_sch" (id 1) (at 17.78 141.5546 0)
      (effects (font (size 1.27 1.27)) (justify left top))
    )
  )

  (sheet (at 17.78 68.58) (size 55.88 7.62) (fields_autoplaced)
    (stroke (width 0.1524) (type solid) (color 0 0 0 0))
    (fill (color 0 0 0 0.0000))
    (uuid fe0fc24b-0537-4b26-92df-b124fc2a291b)
    (property "Sheet name" "page 26 | B, A, & Bus Addr Mux (15:12); K0MX | Slot 6" (id 0) (at 17.78 67.8684 0)
      (effects (font (size 1.27 1.27)) (justify left bottom))
    )
    (property "Sheet file" "M8130-03.kicad_sch" (id 1) (at 17.78 76.7846 0)
      (effects (font (size 1.27 1.27)) (justify left top))
    )
  )

  (sheet (at 92.71 53.34) (size 55.88 7.62) (fields_autoplaced)
    (stroke (width 0.1524) (type solid) (color 0 0 0 0))
    (fill (color 0 0 0 0.0000))
    (uuid ffcdc695-9b29-4dc3-bf5f-3980055b61df)
    (property "Sheet name" "ttl power" (id 0) (at 92.71 52.6284 0)
      (effects (font (size 1.27 1.27)) (justify left bottom))
    )
    (property "Sheet file" "ttl-power.kicad_sch" (id 1) (at 92.71 61.5446 0)
      (effects (font (size 1.27 1.27)) (justify left top))
    )
  )

  (sheet_instances
    (path "/" (page "1"))
    (path "/9bd2903d-8641-4e3c-bd25-a7a8083176bb" (page "2"))
    (path "/1f4a880c-d4aa-4702-ac37-d23785be0851" (page "3"))
    (path "/ffcdc695-9b29-4dc3-bf5f-3980055b61df" (page "4"))
    (path "/1f29d2e6-7cd1-4d55-a840-cbd748f8e68f" (page "5"))
    (path "/35e08602-8830-48c6-8e4c-379631e224ea" (page "6"))
    (path "/42d4e4f7-5d0c-497f-bb87-b30c04ad9f86" (page "7"))
    (path "/fe0fc24b-0537-4b26-92df-b124fc2a291b" (page "8"))
    (path "/3f39fe18-c5ca-49b9-9555-18c12117d390" (page "9"))
    (path "/5f417d86-4cd0-4426-a8a7-befaa992f0f0" (page "10"))
    (path "/ce0d1a0b-4f10-4b36-b5ac-c80729f9351e" (page "11"))
    (path "/dbed59f0-bc8e-48d6-8f9b-2971a76ee3ea" (page "12"))
  )

  (symbol_instances
    (path "/1f29d2e6-7cd1-4d55-a840-cbd748f8e68f/8e825523-ea80-4467-bb0f-3cd34e64a58a"
      (reference "#PWR0101") (unit 1) (value "VCC") (footprint "")
    )
    (path "/1f29d2e6-7cd1-4d55-a840-cbd748f8e68f/40b94d24-6832-4e7c-a92c-6a987e9d711b"
      (reference "#PWR0102") (unit 1) (value "GND") (footprint "")
    )
    (path "/1f29d2e6-7cd1-4d55-a840-cbd748f8e68f/b1a1376f-bca1-4dc5-b4ef-56f3ef2c3bf2"
      (reference "#PWR0103") (unit 1) (value "~") (footprint "")
    )
    (path "/1f29d2e6-7cd1-4d55-a840-cbd748f8e68f/2be13829-ef2a-4918-b171-e8ac6f94c4eb"
      (reference "#PWR0104") (unit 1) (value "GND") (footprint "")
    )
    (path "/1f29d2e6-7cd1-4d55-a840-cbd748f8e68f/853e560f-79d2-4d59-8bf6-0cb9cc91437d"
      (reference "#PWR0105") (unit 1) (value "~") (footprint "")
    )
    (path "/1f29d2e6-7cd1-4d55-a840-cbd748f8e68f/5a817b67-91f7-4e04-9726-325fdd26785d"
      (reference "#PWR0106") (unit 1) (value "VCC") (footprint "")
    )
    (path "/1f29d2e6-7cd1-4d55-a840-cbd748f8e68f/b78ceb9f-9c4c-4e7b-9312-6d7b7cd276d8"
      (reference "#PWR0107") (unit 1) (value "GND") (footprint "")
    )
    (path "/1f29d2e6-7cd1-4d55-a840-cbd748f8e68f/a2e0fae2-0875-44a6-8d87-ce0963f5bc54"
      (reference "#PWR0108") (unit 1) (value "VCC") (footprint "")
    )
    (path "/35e08602-8830-48c6-8e4c-379631e224ea/0e9c5c1b-c23a-4fe4-9851-bb73fabd6f02"
      (reference "#PWR0109") (unit 1) (value "VCC") (footprint "")
    )
    (path "/35e08602-8830-48c6-8e4c-379631e224ea/1e4ff76c-c481-4ae0-bd2b-22d70c9991a5"
      (reference "#PWR0110") (unit 1) (value "GND") (footprint "")
    )
    (path "/35e08602-8830-48c6-8e4c-379631e224ea/29698f6a-22a8-4a57-b81b-6806427faf68"
      (reference "#PWR0111") (unit 1) (value "GND") (footprint "")
    )
    (path "/35e08602-8830-48c6-8e4c-379631e224ea/58a76553-cd9b-4aec-ac96-758f69d3fb2b"
      (reference "#PWR0112") (unit 1) (value "VCC") (footprint "")
    )
    (path "/35e08602-8830-48c6-8e4c-379631e224ea/d59addb6-7c53-4713-a827-20ccf15d6004"
      (reference "#PWR0113") (unit 1) (value "VCC") (footprint "")
    )
    (path "/35e08602-8830-48c6-8e4c-379631e224ea/3a338681-4fa3-40bd-93ac-41c046497f26"
      (reference "#PWR0114") (unit 1) (value "GND") (footprint "")
    )
    (path "/35e08602-8830-48c6-8e4c-379631e224ea/e3aeae25-c6ac-4106-b331-73ce7381cefd"
      (reference "#PWR0115") (unit 1) (value "VCC") (footprint "")
    )
    (path "/35e08602-8830-48c6-8e4c-379631e224ea/05fb379a-b98f-4632-a046-a1d7c0a068ac"
      (reference "#PWR0116") (unit 1) (value "GND") (footprint "")
    )
    (path "/35e08602-8830-48c6-8e4c-379631e224ea/f472eef1-82be-411f-ac12-274cc068cc95"
      (reference "#PWR0117") (unit 1) (value "GND") (footprint "")
    )
    (path "/35e08602-8830-48c6-8e4c-379631e224ea/5c13f1c3-08cd-43be-9744-3ffa6a0fe14b"
      (reference "#PWR0118") (unit 1) (value "VCC") (footprint "")
    )
    (path "/35e08602-8830-48c6-8e4c-379631e224ea/7c5bb32c-a780-44b3-bb17-3aa6ea91ebfd"
      (reference "#PWR0119") (unit 1) (value "GND") (footprint "")
    )
    (path "/35e08602-8830-48c6-8e4c-379631e224ea/c6eb641b-1992-40f0-8623-8e214e2235a4"
      (reference "#PWR0120") (unit 1) (value "VCC") (footprint "")
    )
    (path "/35e08602-8830-48c6-8e4c-379631e224ea/680d13d5-e87c-44a9-9610-ef41cf7a6c6d"
      (reference "#PWR0121") (unit 1) (value "GND") (footprint "")
    )
    (path "/35e08602-8830-48c6-8e4c-379631e224ea/d16953a0-a6d4-4121-8583-774467b5f49c"
      (reference "#PWR0122") (unit 1) (value "VCC") (footprint "")
    )
    (path "/35e08602-8830-48c6-8e4c-379631e224ea/2c350a70-87b4-4dcd-8fd4-760df895ad3c"
      (reference "#PWR0123") (unit 1) (value "GND") (footprint "")
    )
    (path "/35e08602-8830-48c6-8e4c-379631e224ea/efac091f-2bc7-4837-a803-fdd6883890b0"
      (reference "#PWR0124") (unit 1) (value "VCC") (footprint "")
    )
    (path "/35e08602-8830-48c6-8e4c-379631e224ea/b7ef000e-f30f-459d-8457-dbfa132b0778"
      (reference "#PWR0125") (unit 1) (value "VCC") (footprint "")
    )
    (path "/35e08602-8830-48c6-8e4c-379631e224ea/a9d636fc-4a64-4571-b068-00366c8a6fe6"
      (reference "#PWR0126") (unit 1) (value "GND") (footprint "")
    )
    (path "/42d4e4f7-5d0c-497f-bb87-b30c04ad9f86/662494cc-a975-4cdd-9937-4e83040f9599"
      (reference "#PWR0127") (unit 1) (value "~") (footprint "")
    )
    (path "/42d4e4f7-5d0c-497f-bb87-b30c04ad9f86/60e1d39c-2b8d-4472-b244-84df6693403b"
      (reference "#PWR0128") (unit 1) (value "~") (footprint "")
    )
    (path "/42d4e4f7-5d0c-497f-bb87-b30c04ad9f86/bf2d5b34-ef98-44d1-b6a4-9ed165ed1a24"
      (reference "#PWR0129") (unit 1) (value "GND") (footprint "")
    )
    (path "/42d4e4f7-5d0c-497f-bb87-b30c04ad9f86/7ccacdad-6648-4188-b837-504e08b7e0b6"
      (reference "#PWR0130") (unit 1) (value "GND") (footprint "")
    )
    (path "/42d4e4f7-5d0c-497f-bb87-b30c04ad9f86/fab29b71-bed3-4cb5-af75-41e44e8d6300"
      (reference "#PWR0131") (unit 1) (value "VCC") (footprint "")
    )
    (path "/42d4e4f7-5d0c-497f-bb87-b30c04ad9f86/d0068465-92b7-48c2-a338-eafb7f11f068"
      (reference "#PWR0132") (unit 1) (value "VCC") (footprint "")
    )
    (path "/42d4e4f7-5d0c-497f-bb87-b30c04ad9f86/2a3641d9-b276-4309-8a43-99846caead63"
      (reference "#PWR0133") (unit 1) (value "GND") (footprint "")
    )
    (path "/42d4e4f7-5d0c-497f-bb87-b30c04ad9f86/0a4016ff-20e5-4aa4-8d71-9dc6bd28bfe2"
      (reference "#PWR0134") (unit 1) (value "VCC") (footprint "")
    )
    (path "/42d4e4f7-5d0c-497f-bb87-b30c04ad9f86/f6a9ce71-eb7b-46d0-8943-36e8cf5bce22"
      (reference "#PWR0135") (unit 1) (value "VCC") (footprint "")
    )
    (path "/42d4e4f7-5d0c-497f-bb87-b30c04ad9f86/b299377c-094e-43bd-9ebe-307184d20c21"
      (reference "#PWR0136") (unit 1) (value "GND") (footprint "")
    )
    (path "/42d4e4f7-5d0c-497f-bb87-b30c04ad9f86/0a5efd25-83b8-4d31-bab3-26c46dc406d6"
      (reference "#PWR0137") (unit 1) (value "GND") (footprint "")
    )
    (path "/42d4e4f7-5d0c-497f-bb87-b30c04ad9f86/70abca1b-86cd-4931-b251-e5475a2201d8"
      (reference "#PWR0138") (unit 1) (value "VCC") (footprint "")
    )
    (path "/42d4e4f7-5d0c-497f-bb87-b30c04ad9f86/7d0ff4e4-d2dc-4ebe-93dc-28c0a69d89d3"
      (reference "#PWR0139") (unit 1) (value "GND") (footprint "")
    )
    (path "/42d4e4f7-5d0c-497f-bb87-b30c04ad9f86/7deedfdc-87b2-4e5e-b83a-c4bef5f3d19a"
      (reference "#PWR0140") (unit 1) (value "VCC") (footprint "")
    )
    (path "/42d4e4f7-5d0c-497f-bb87-b30c04ad9f86/6a6cd22d-4e1e-49a0-b677-63977e772497"
      (reference "#PWR0141") (unit 1) (value "VCC") (footprint "")
    )
    (path "/42d4e4f7-5d0c-497f-bb87-b30c04ad9f86/21f8e574-4565-4b8e-aa2f-0a37ffdf242f"
      (reference "#PWR0142") (unit 1) (value "GND") (footprint "")
    )
    (path "/42d4e4f7-5d0c-497f-bb87-b30c04ad9f86/d375d395-8443-4a20-969d-fd3df78f82ba"
      (reference "#PWR0143") (unit 1) (value "VCC") (footprint "")
    )
    (path "/42d4e4f7-5d0c-497f-bb87-b30c04ad9f86/e27385ae-b18c-4999-a12f-d8146e5afd12"
      (reference "#PWR0144") (unit 1) (value "GND") (footprint "")
    )
    (path "/42d4e4f7-5d0c-497f-bb87-b30c04ad9f86/bd96b1f6-cb12-4d17-8837-51fe688916d0"
      (reference "#PWR0145") (unit 1) (value "GND") (footprint "")
    )
    (path "/1f4a880c-d4aa-4702-ac37-d23785be0851/d2b825b6-adc5-489d-ad8c-a8683d7ca8d5"
      (reference "#PWR0146") (unit 1) (value "VCC") (footprint "")
    )
    (path "/1f4a880c-d4aa-4702-ac37-d23785be0851/3616a87d-1c71-4612-8ef7-04f01f1e5b23"
      (reference "#PWR0147") (unit 1) (value "GND") (footprint "")
    )
    (path "/1f4a880c-d4aa-4702-ac37-d23785be0851/afcc7692-061f-4f87-aa9d-a3f0c865d0c6"
      (reference "#PWR0148") (unit 1) (value "VCC") (footprint "")
    )
    (path "/1f4a880c-d4aa-4702-ac37-d23785be0851/a33e4d18-865e-454b-9cf7-11bb99c583b9"
      (reference "#PWR0149") (unit 1) (value "GND") (footprint "")
    )
    (path "/1f4a880c-d4aa-4702-ac37-d23785be0851/ea0bfb45-bb06-4e7b-b153-ccc1181e9ade"
      (reference "#PWR0150") (unit 1) (value "VCC") (footprint "")
    )
    (path "/1f4a880c-d4aa-4702-ac37-d23785be0851/e77a50db-7062-4dff-b465-04330d4b544a"
      (reference "#PWR0151") (unit 1) (value "GND") (footprint "")
    )
    (path "/fe0fc24b-0537-4b26-92df-b124fc2a291b/a509035c-8ed8-4b8c-83e9-5d90f5094328"
      (reference "#PWR0152") (unit 1) (value "VCC") (footprint "")
    )
    (path "/fe0fc24b-0537-4b26-92df-b124fc2a291b/6868f3e1-5751-4cf9-b72b-ef55334c8101"
      (reference "#PWR0153") (unit 1) (value "~") (footprint "")
    )
    (path "/fe0fc24b-0537-4b26-92df-b124fc2a291b/a572c882-eb14-4362-a92e-c69370a2752a"
      (reference "#PWR0154") (unit 1) (value "~") (footprint "")
    )
    (path "/fe0fc24b-0537-4b26-92df-b124fc2a291b/1a6aa0c0-3815-4335-b8b3-56204656ef2e"
      (reference "#PWR0155") (unit 1) (value "GND") (footprint "")
    )
    (path "/fe0fc24b-0537-4b26-92df-b124fc2a291b/f3f7bfc8-310b-4a4f-952f-721b9c6983cd"
      (reference "#PWR0156") (unit 1) (value "GND") (footprint "")
    )
    (path "/fe0fc24b-0537-4b26-92df-b124fc2a291b/c9b36b93-525e-4cfa-8267-5a84c2c0dbdf"
      (reference "#PWR0157") (unit 1) (value "VCC") (footprint "")
    )
    (path "/fe0fc24b-0537-4b26-92df-b124fc2a291b/4f23dede-61ae-4d62-a810-5fff19f6e6bd"
      (reference "#PWR0158") (unit 1) (value "VCC") (footprint "")
    )
    (path "/fe0fc24b-0537-4b26-92df-b124fc2a291b/07e0e644-b711-453a-adff-604eac01d57e"
      (reference "#PWR0159") (unit 1) (value "GND") (footprint "")
    )
    (path "/fe0fc24b-0537-4b26-92df-b124fc2a291b/7c230da2-80f6-4f24-976a-974f8ff9dbb4"
      (reference "#PWR0160") (unit 1) (value "GND") (footprint "")
    )
    (path "/fe0fc24b-0537-4b26-92df-b124fc2a291b/90948e48-918f-40f4-b277-b1f267d82f06"
      (reference "#PWR0161") (unit 1) (value "VCC") (footprint "")
    )
    (path "/fe0fc24b-0537-4b26-92df-b124fc2a291b/46ce5632-e506-443c-a1d2-56d90cb88463"
      (reference "#PWR0162") (unit 1) (value "VCC") (footprint "")
    )
    (path "/fe0fc24b-0537-4b26-92df-b124fc2a291b/dd76885a-4f22-49ba-b6dd-a79df00cc153"
      (reference "#PWR0163") (unit 1) (value "VCC") (footprint "")
    )
    (path "/fe0fc24b-0537-4b26-92df-b124fc2a291b/d37565d3-f4e0-494d-8860-83c4bfce7cb3"
      (reference "#PWR0164") (unit 1) (value "GND") (footprint "")
    )
    (path "/fe0fc24b-0537-4b26-92df-b124fc2a291b/d2dbd8f9-f324-4a38-be6a-869cab8c05f0"
      (reference "#PWR0165") (unit 1) (value "GND") (footprint "")
    )
    (path "/fe0fc24b-0537-4b26-92df-b124fc2a291b/f2b82e5c-b61c-4f05-9e53-73101052114b"
      (reference "#PWR0166") (unit 1) (value "VCC") (footprint "")
    )
    (path "/fe0fc24b-0537-4b26-92df-b124fc2a291b/7bf99150-0250-426e-9434-fa96394f8a38"
      (reference "#PWR0167") (unit 1) (value "GND") (footprint "")
    )
    (path "/1f4a880c-d4aa-4702-ac37-d23785be0851/2cd4b9de-99c8-4797-b78c-15e78e0e98b8"
      (reference "#PWR0168") (unit 1) (value "VCC") (footprint "")
    )
    (path "/1f4a880c-d4aa-4702-ac37-d23785be0851/007158a7-de46-4742-a142-a4a265caea66"
      (reference "#PWR0169") (unit 1) (value "GND") (footprint "")
    )
    (path "/3f39fe18-c5ca-49b9-9555-18c12117d390/d552ac68-50ed-4953-9588-ba63f9b1c81c"
      (reference "#PWR0170") (unit 1) (value "VCC") (footprint "")
    )
    (path "/3f39fe18-c5ca-49b9-9555-18c12117d390/ea55b7f6-691f-4107-bd85-6149f807cb58"
      (reference "#PWR0171") (unit 1) (value "GND") (footprint "")
    )
    (path "/3f39fe18-c5ca-49b9-9555-18c12117d390/f3917423-1483-461b-868b-1d1dbb0adba3"
      (reference "#PWR0172") (unit 1) (value "GND") (footprint "")
    )
    (path "/3f39fe18-c5ca-49b9-9555-18c12117d390/235a0032-4058-4f9d-a3df-5162a8e7f2b1"
      (reference "#PWR0173") (unit 1) (value "GND") (footprint "")
    )
    (path "/3f39fe18-c5ca-49b9-9555-18c12117d390/7bd21140-7b82-4e09-87c0-b55cda6d66f6"
      (reference "#PWR0174") (unit 1) (value "VCC") (footprint "")
    )
    (path "/3f39fe18-c5ca-49b9-9555-18c12117d390/96554c11-1770-45ed-9197-879b0465ec26"
      (reference "#PWR0175") (unit 1) (value "VCC") (footprint "")
    )
    (path "/3f39fe18-c5ca-49b9-9555-18c12117d390/156475e1-1623-458a-8eaa-9f0dfe5fa342"
      (reference "#PWR0176") (unit 1) (value "GND") (footprint "")
    )
    (path "/3f39fe18-c5ca-49b9-9555-18c12117d390/6fe29ae0-1dec-4d10-9923-6b6dd4d137a7"
      (reference "#PWR0177") (unit 1) (value "GND") (footprint "")
    )
    (path "/3f39fe18-c5ca-49b9-9555-18c12117d390/21da4bd9-6ade-4933-990a-ff34b98042f3"
      (reference "#PWR0178") (unit 1) (value "VCC") (footprint "")
    )
    (path "/3f39fe18-c5ca-49b9-9555-18c12117d390/e370eafc-6390-42a0-9707-ecb875191c04"
      (reference "#PWR0179") (unit 1) (value "GND") (footprint "")
    )
    (path "/3f39fe18-c5ca-49b9-9555-18c12117d390/5deb51ad-65da-48d2-a7ad-da8a74b5bd96"
      (reference "#PWR0180") (unit 1) (value "GND") (footprint "")
    )
    (path "/3f39fe18-c5ca-49b9-9555-18c12117d390/a9f2afb3-876e-439c-926d-33c99d0a6f65"
      (reference "#PWR0181") (unit 1) (value "VCC") (footprint "")
    )
    (path "/3f39fe18-c5ca-49b9-9555-18c12117d390/8069720d-73a1-4aa2-ba3a-f92499d215dd"
      (reference "#PWR0182") (unit 1) (value "VCC") (footprint "")
    )
    (path "/ffcdc695-9b29-4dc3-bf5f-3980055b61df/415419bd-8788-4226-874e-5b96779935f7"
      (reference "#PWR0183") (unit 1) (value "VCC") (footprint "")
    )
    (path "/ffcdc695-9b29-4dc3-bf5f-3980055b61df/2925cd62-6560-4098-8c3a-7ed974cdb7ce"
      (reference "#PWR0184") (unit 1) (value "GND") (footprint "")
    )
    (path "/5f417d86-4cd0-4426-a8a7-befaa992f0f0/3f312ed0-ce64-4ebb-83c2-582bc4e990d5"
      (reference "#PWR0185") (unit 1) (value "VCC") (footprint "")
    )
    (path "/5f417d86-4cd0-4426-a8a7-befaa992f0f0/ccd9c628-be44-47b8-977c-77dbf1f58f42"
      (reference "#PWR0186") (unit 1) (value "GND") (footprint "")
    )
    (path "/5f417d86-4cd0-4426-a8a7-befaa992f0f0/99d402a8-80ff-4f7b-a632-9dbbf03a7151"
      (reference "#PWR0187") (unit 1) (value "GND") (footprint "")
    )
    (path "/5f417d86-4cd0-4426-a8a7-befaa992f0f0/0937504a-8530-43f8-bc50-850c676548b8"
      (reference "#PWR0188") (unit 1) (value "VCC") (footprint "")
    )
    (path "/5f417d86-4cd0-4426-a8a7-befaa992f0f0/737c6c9b-3504-40be-bac9-cfc2ad3daec2"
      (reference "#PWR0189") (unit 1) (value "VCC") (footprint "")
    )
    (path "/5f417d86-4cd0-4426-a8a7-befaa992f0f0/fb14306e-8c58-4301-b1cc-7d0c26e4b70a"
      (reference "#PWR0190") (unit 1) (value "VCC") (footprint "")
    )
    (path "/5f417d86-4cd0-4426-a8a7-befaa992f0f0/8b74a5cc-63f6-4a4c-ab61-28b2d50ce459"
      (reference "#PWR0191") (unit 1) (value "GND") (footprint "")
    )
    (path "/5f417d86-4cd0-4426-a8a7-befaa992f0f0/38a6fa9d-8d60-4899-b8fa-36a011e9e193"
      (reference "#PWR0192") (unit 1) (value "VCC") (footprint "")
    )
    (path "/ce0d1a0b-4f10-4b36-b5ac-c80729f9351e/d44a86f0-3d6a-46f6-a4fc-62fa2c1008d4"
      (reference "#PWR0193") (unit 1) (value "VCC") (footprint "")
    )
    (path "/5f417d86-4cd0-4426-a8a7-befaa992f0f0/20e76a39-dd51-4e8e-bc2b-ec5e4f877ffb"
      (reference "#PWR0194") (unit 1) (value "GND") (footprint "")
    )
    (path "/5f417d86-4cd0-4426-a8a7-befaa992f0f0/2f09754c-2ad8-46ff-a669-b40c17a9d680"
      (reference "#PWR0195") (unit 1) (value "VCC") (footprint "")
    )
    (path "/5f417d86-4cd0-4426-a8a7-befaa992f0f0/a34f2053-e683-4401-8c6f-a8bffcfe7d0a"
      (reference "#PWR0196") (unit 1) (value "GND") (footprint "")
    )
    (path "/5f417d86-4cd0-4426-a8a7-befaa992f0f0/ccccc948-0c29-4aca-b79d-c854b2b8557c"
      (reference "#PWR0197") (unit 1) (value "GND") (footprint "")
    )
    (path "/5f417d86-4cd0-4426-a8a7-befaa992f0f0/eb370783-7ce9-4f07-9a87-6925135d2eb6"
      (reference "#PWR0198") (unit 1) (value "VCC") (footprint "")
    )
    (path "/5f417d86-4cd0-4426-a8a7-befaa992f0f0/8add2aa3-904a-404d-9cfd-85a6ee7717d0"
      (reference "#PWR0199") (unit 1) (value "VCC") (footprint "")
    )
    (path "/5f417d86-4cd0-4426-a8a7-befaa992f0f0/8cb88207-c230-4848-957c-62873aafcfbf"
      (reference "#PWR0200") (unit 1) (value "GND") (footprint "")
    )
    (path "/5f417d86-4cd0-4426-a8a7-befaa992f0f0/148ad9f6-4711-4a13-a690-7ab70044858d"
      (reference "#PWR0201") (unit 1) (value "GND") (footprint "")
    )
    (path "/5f417d86-4cd0-4426-a8a7-befaa992f0f0/3b0ba121-8d61-40da-85a8-c520670df630"
      (reference "#PWR0202") (unit 1) (value "GND") (footprint "")
    )
    (path "/5f417d86-4cd0-4426-a8a7-befaa992f0f0/31d9d0f0-40ad-4778-931e-cf91153ed0dc"
      (reference "#PWR0203") (unit 1) (value "GND") (footprint "")
    )
    (path "/5f417d86-4cd0-4426-a8a7-befaa992f0f0/897b5c87-6217-4f7e-9341-85b07c3fadd7"
      (reference "#PWR0204") (unit 1) (value "VCC") (footprint "")
    )
    (path "/5f417d86-4cd0-4426-a8a7-befaa992f0f0/6aed5d2a-f2df-4431-99e3-f4622d9aba6d"
      (reference "#PWR0205") (unit 1) (value "VCC") (footprint "")
    )
    (path "/1f29d2e6-7cd1-4d55-a840-cbd748f8e68f/75ee68b6-c216-456b-aca0-9e22c2ca4c59"
      (reference "#PWR0206") (unit 1) (value "GND") (footprint "")
    )
    (path "/ce0d1a0b-4f10-4b36-b5ac-c80729f9351e/9d8803d4-9c06-4097-849c-59b34820e751"
      (reference "#PWR0207") (unit 1) (value "VCC") (footprint "")
    )
    (path "/ce0d1a0b-4f10-4b36-b5ac-c80729f9351e/5ad9079e-8e2f-44bf-a013-a6935d45e377"
      (reference "#PWR0208") (unit 1) (value "GND") (footprint "")
    )
    (path "/ce0d1a0b-4f10-4b36-b5ac-c80729f9351e/0d161e4e-1db5-43c8-a242-82f4d56e6f6f"
      (reference "#PWR0209") (unit 1) (value "GND") (footprint "")
    )
    (path "/ce0d1a0b-4f10-4b36-b5ac-c80729f9351e/4c283cca-d4b9-4c4d-8e73-4c8aeeae4d4d"
      (reference "#PWR0210") (unit 1) (value "VCC") (footprint "")
    )
    (path "/ce0d1a0b-4f10-4b36-b5ac-c80729f9351e/f2515d3a-a252-4c24-a843-16d71e4dbb20"
      (reference "#PWR0211") (unit 1) (value "GND") (footprint "")
    )
    (path "/ce0d1a0b-4f10-4b36-b5ac-c80729f9351e/20c6b32d-51d8-446b-97a6-84879e9fc265"
      (reference "#PWR0212") (unit 1) (value "GND") (footprint "")
    )
    (path "/ce0d1a0b-4f10-4b36-b5ac-c80729f9351e/bed9c467-5221-4c19-b618-d84c60de1ab7"
      (reference "#PWR0213") (unit 1) (value "VCC") (footprint "")
    )
    (path "/ce0d1a0b-4f10-4b36-b5ac-c80729f9351e/16a57048-edfe-4514-b3cf-add28220d335"
      (reference "#PWR0214") (unit 1) (value "VCC") (footprint "")
    )
    (path "/ce0d1a0b-4f10-4b36-b5ac-c80729f9351e/878258b1-da48-4b7a-8eaa-9ef1877e4bf3"
      (reference "#PWR0215") (unit 1) (value "VCC") (footprint "")
    )
    (path "/ce0d1a0b-4f10-4b36-b5ac-c80729f9351e/26ff5f1a-62cd-4b3a-9442-da276bf03b67"
      (reference "#PWR0216") (unit 1) (value "GND") (footprint "")
    )
    (path "/ce0d1a0b-4f10-4b36-b5ac-c80729f9351e/7e5ea277-7687-41e8-b593-549acf0ddbeb"
      (reference "#PWR0217") (unit 1) (value "VCC") (footprint "")
    )
    (path "/ce0d1a0b-4f10-4b36-b5ac-c80729f9351e/3afb6148-07c0-4ca6-aa41-b3438514d177"
      (reference "#PWR0218") (unit 1) (value "GND") (footprint "")
    )
    (path "/ce0d1a0b-4f10-4b36-b5ac-c80729f9351e/b761f8da-3e15-4a01-b594-60224cb9ba63"
      (reference "#PWR0219") (unit 1) (value "GND") (footprint "")
    )
    (path "/ce0d1a0b-4f10-4b36-b5ac-c80729f9351e/b36e1a13-9d04-432b-9eaf-81756c836c8f"
      (reference "#PWR0220") (unit 1) (value "VCC") (footprint "")
    )
    (path "/ce0d1a0b-4f10-4b36-b5ac-c80729f9351e/7ef0db15-027c-411c-8062-06066c204be8"
      (reference "#PWR0221") (unit 1) (value "GND") (footprint "")
    )
    (path "/ce0d1a0b-4f10-4b36-b5ac-c80729f9351e/48bd17c4-d46e-4c77-9a90-b1ef7dac0a25"
      (reference "#PWR0222") (unit 1) (value "VCC") (footprint "")
    )
    (path "/1f4a880c-d4aa-4702-ac37-d23785be0851/6bb27b06-b762-4926-abd5-69f8f08fe900"
      (reference "#PWR0223") (unit 1) (value "VCC") (footprint "")
    )
    (path "/ce0d1a0b-4f10-4b36-b5ac-c80729f9351e/9a9fd6ab-526f-4c23-ab2f-441971de0d83"
      (reference "#PWR0224") (unit 1) (value "VCC") (footprint "")
    )
    (path "/ce0d1a0b-4f10-4b36-b5ac-c80729f9351e/e46df6cf-d38a-4fbf-8693-166c8388e474"
      (reference "#PWR0225") (unit 1) (value "VCC") (footprint "")
    )
    (path "/ce0d1a0b-4f10-4b36-b5ac-c80729f9351e/3f0e8cb0-0620-4952-adb7-1782185731fe"
      (reference "#PWR0226") (unit 1) (value "GND") (footprint "")
    )
    (path "/dbed59f0-bc8e-48d6-8f9b-2971a76ee3ea/6ae4537c-29cc-4be1-9e17-26b7df0029a1"
      (reference "#PWR0227") (unit 1) (value "VCC") (footprint "")
    )
    (path "/dbed59f0-bc8e-48d6-8f9b-2971a76ee3ea/2115ccb4-a79f-4f88-b355-848b07c08888"
      (reference "#PWR0228") (unit 1) (value "GND") (footprint "")
    )
    (path "/dbed59f0-bc8e-48d6-8f9b-2971a76ee3ea/7b2810ca-b394-4ee1-98c8-e6a6ba54ea59"
      (reference "#PWR0229") (unit 1) (value "GND") (footprint "")
    )
    (path "/dbed59f0-bc8e-48d6-8f9b-2971a76ee3ea/0bb42267-0234-4cd2-a946-debf062927c9"
      (reference "#PWR0230") (unit 1) (value "VCC") (footprint "")
    )
    (path "/dbed59f0-bc8e-48d6-8f9b-2971a76ee3ea/0445a97f-8ba5-46ee-84e6-17a6fe7a8580"
      (reference "#PWR0231") (unit 1) (value "GND") (footprint "")
    )
    (path "/dbed59f0-bc8e-48d6-8f9b-2971a76ee3ea/e29b186e-7ba3-49d4-8561-1649a0c40142"
      (reference "#PWR0232") (unit 1) (value "VCC") (footprint "")
    )
    (path "/dbed59f0-bc8e-48d6-8f9b-2971a76ee3ea/cd2134a7-fdf7-4e5d-8e91-4756acfb3624"
      (reference "#PWR0233") (unit 1) (value "GND") (footprint "")
    )
    (path "/dbed59f0-bc8e-48d6-8f9b-2971a76ee3ea/2f441e1b-3523-4f6c-9ea3-919a9b443244"
      (reference "#PWR0234") (unit 1) (value "GND") (footprint "")
    )
    (path "/dbed59f0-bc8e-48d6-8f9b-2971a76ee3ea/80f7c250-2365-44d5-b3fa-84e473ef4e20"
      (reference "#PWR0235") (unit 1) (value "VCC") (footprint "")
    )
    (path "/dbed59f0-bc8e-48d6-8f9b-2971a76ee3ea/b9663231-e698-4247-bf2c-fa343bd690c0"
      (reference "#PWR0236") (unit 1) (value "GND") (footprint "")
    )
    (path "/dbed59f0-bc8e-48d6-8f9b-2971a76ee3ea/8ea023e0-c100-4f0b-986c-336cac5c1e92"
      (reference "#PWR0237") (unit 1) (value "VCC") (footprint "")
    )
    (path "/dbed59f0-bc8e-48d6-8f9b-2971a76ee3ea/ca41dc9c-04fa-43ed-b969-db4361d277a9"
      (reference "#PWR0238") (unit 1) (value "GND") (footprint "")
    )
    (path "/dbed59f0-bc8e-48d6-8f9b-2971a76ee3ea/f76fd660-9c26-4fc9-8ee9-e9fc47c56558"
      (reference "#PWR0239") (unit 1) (value "VCC") (footprint "")
    )
    (path "/dbed59f0-bc8e-48d6-8f9b-2971a76ee3ea/3b113cb7-4ac7-445e-bd25-4b6a674b2e00"
      (reference "#PWR0240") (unit 1) (value "GND") (footprint "")
    )
    (path "/dbed59f0-bc8e-48d6-8f9b-2971a76ee3ea/4f5b5f09-93a2-4fed-a15e-e1e224dcb062"
      (reference "#PWR0241") (unit 1) (value "VCC") (footprint "")
    )
    (path "/9bd2903d-8641-4e3c-bd25-a7a8083176bb/ea362bab-c2b8-495f-9ca9-aa9ec263cbe1"
      (reference "#PWR0242") (unit 1) (value "GND") (footprint "")
    )
    (path "/9bd2903d-8641-4e3c-bd25-a7a8083176bb/0325ea7d-cb78-472b-9781-fffeabfd8201"
      (reference "#PWR0243") (unit 1) (value "GND") (footprint "")
    )
    (path "/9bd2903d-8641-4e3c-bd25-a7a8083176bb/74cbfe9e-a713-4271-9710-336ce04c0ea1"
      (reference "#PWR0244") (unit 1) (value "GND") (footprint "")
    )
    (path "/9bd2903d-8641-4e3c-bd25-a7a8083176bb/c963939e-35e0-4c53-9e76-f715eee8e3ee"
      (reference "#PWR0245") (unit 1) (value "VCC") (footprint "")
    )
    (path "/1f4a880c-d4aa-4702-ac37-d23785be0851/e27fbcce-489d-40a0-9236-503940d01e4b"
      (reference "#PWR0246") (unit 1) (value "VCC") (footprint "")
    )
    (path "/1f4a880c-d4aa-4702-ac37-d23785be0851/29b52f9f-8d42-447c-a9dd-80ace60af9b2"
      (reference "#PWR0247") (unit 1) (value "GND") (footprint "")
    )
    (path "/1f4a880c-d4aa-4702-ac37-d23785be0851/d3be8194-36ad-4822-b1fa-97a367f4d70a"
      (reference "#PWR0248") (unit 1) (value "VCC") (footprint "")
    )
    (path "/1f4a880c-d4aa-4702-ac37-d23785be0851/f19329b1-88e5-44c1-b1af-da2d1811e57c"
      (reference "#PWR0249") (unit 1) (value "GND") (footprint "")
    )
    (path "/1f4a880c-d4aa-4702-ac37-d23785be0851/9cf7919d-855e-4b0e-8591-7f7e433f1b4f"
      (reference "#PWR0250") (unit 1) (value "VCC") (footprint "")
    )
    (path "/1f4a880c-d4aa-4702-ac37-d23785be0851/27996a3c-99fa-44c8-aeb3-d314dd60cdc0"
      (reference "#PWR0251") (unit 1) (value "GND") (footprint "")
    )
    (path "/1f4a880c-d4aa-4702-ac37-d23785be0851/d6b6caed-7465-4183-b841-a174fd9e17b5"
      (reference "#PWR0252") (unit 1) (value "VCC") (footprint "")
    )
    (path "/1f4a880c-d4aa-4702-ac37-d23785be0851/3cd3b724-453f-42e3-b887-28372d1dd9b3"
      (reference "#PWR0253") (unit 1) (value "GND") (footprint "")
    )
    (path "/1f4a880c-d4aa-4702-ac37-d23785be0851/898396ce-2763-4f86-b66a-af6875b91b81"
      (reference "#PWR0254") (unit 1) (value "GND") (footprint "")
    )
    (path "/5f417d86-4cd0-4426-a8a7-befaa992f0f0/dcc33ba8-66c2-4926-9f49-50ef0d5e4ec6"
      (reference "#PWR0255") (unit 1) (value "VCC") (footprint "")
    )
    (path "/ffcdc695-9b29-4dc3-bf5f-3980055b61df/b5a77241-5249-4007-81e3-898e6fee69a6"
      (reference "#PWR0256") (unit 1) (value "GND") (footprint "")
    )
    (path "/ffcdc695-9b29-4dc3-bf5f-3980055b61df/cfb78e2b-04f0-4578-b12a-26f2ec900b89"
      (reference "#PWR0257") (unit 1) (value "GND") (footprint "")
    )
    (path "/ffcdc695-9b29-4dc3-bf5f-3980055b61df/ed7cf1f2-ca31-43ac-a315-13f6f907300a"
      (reference "#PWR0258") (unit 1) (value "GND") (footprint "")
    )
    (path "/ffcdc695-9b29-4dc3-bf5f-3980055b61df/eb5e9b07-0295-433a-8cd6-7f5bea41fcd9"
      (reference "#PWR0259") (unit 1) (value "GND") (footprint "")
    )
    (path "/ffcdc695-9b29-4dc3-bf5f-3980055b61df/974ee3aa-c0d7-499b-b434-2afacb1a44d5"
      (reference "#PWR0260") (unit 1) (value "GND") (footprint "")
    )
    (path "/ffcdc695-9b29-4dc3-bf5f-3980055b61df/c1260fa3-d222-4922-8371-06ec69491aa7"
      (reference "#PWR0261") (unit 1) (value "GND") (footprint "")
    )
    (path "/ffcdc695-9b29-4dc3-bf5f-3980055b61df/91499624-1fc1-4d41-905a-bf2712550b0a"
      (reference "#PWR0262") (unit 1) (value "GND") (footprint "")
    )
    (path "/ffcdc695-9b29-4dc3-bf5f-3980055b61df/caaa087e-4d66-4577-92bd-4f0ad8019c10"
      (reference "#PWR0263") (unit 1) (value "GND") (footprint "")
    )
    (path "/ffcdc695-9b29-4dc3-bf5f-3980055b61df/25868604-5c67-4662-b1d4-e295a0cf7a9f"
      (reference "#PWR0264") (unit 1) (value "GND") (footprint "")
    )
    (path "/ffcdc695-9b29-4dc3-bf5f-3980055b61df/ecea9562-3834-4f9c-8b72-194e1119dc17"
      (reference "#PWR0265") (unit 1) (value "VCC") (footprint "")
    )
    (path "/ffcdc695-9b29-4dc3-bf5f-3980055b61df/e2302459-7358-41b9-b215-df93b990ba55"
      (reference "#PWR0266") (unit 1) (value "GND") (footprint "")
    )
    (path "/ffcdc695-9b29-4dc3-bf5f-3980055b61df/10be6398-a1a0-46e4-a5a7-6827a71235aa"
      (reference "#PWR0267") (unit 1) (value "GND") (footprint "")
    )
    (path "/ffcdc695-9b29-4dc3-bf5f-3980055b61df/11013851-f86f-45de-ba0b-76f15675a28b"
      (reference "#PWR0268") (unit 1) (value "GND") (footprint "")
    )
    (path "/ffcdc695-9b29-4dc3-bf5f-3980055b61df/5b76445e-2714-438d-9a0a-716207bd0e08"
      (reference "#PWR0269") (unit 1) (value "GND") (footprint "")
    )
    (path "/ffcdc695-9b29-4dc3-bf5f-3980055b61df/9aea19d9-3ae4-4fba-ab0d-1baa68546a57"
      (reference "#PWR0270") (unit 1) (value "GND") (footprint "")
    )
    (path "/ffcdc695-9b29-4dc3-bf5f-3980055b61df/ea12d329-8258-40ed-9d48-c00ce83ba940"
      (reference "#PWR0271") (unit 1) (value "GND") (footprint "")
    )
    (path "/9bd2903d-8641-4e3c-bd25-a7a8083176bb/887c4178-dd2c-4517-83a4-eac65feb635d"
      (reference "#PWR0272") (unit 1) (value "VCC") (footprint "")
    )
    (path "/9bd2903d-8641-4e3c-bd25-a7a8083176bb/7a8a3cf8-06f4-4fc4-9b7c-05bfce686499"
      (reference "#PWR0273") (unit 1) (value "VCC") (footprint "")
    )
    (path "/9bd2903d-8641-4e3c-bd25-a7a8083176bb/4d301358-f4d8-4128-a7f8-45f35362829f"
      (reference "#PWR0274") (unit 1) (value "VCC") (footprint "")
    )
    (path "/9bd2903d-8641-4e3c-bd25-a7a8083176bb/f2f00cf3-f704-4f48-a4ba-84225078ea2e"
      (reference "#PWR0275") (unit 1) (value "GND") (footprint "")
    )
    (path "/1f4a880c-d4aa-4702-ac37-d23785be0851/1da3c9bb-71e8-453b-8dbf-280d8fadc3b0"
      (reference "C2") (unit 1) (value ".01µ") (footprint "Capacitor_THT:C_Rect_L9.0mm_W2.5mm_P7.50mm_MKT")
    )
    (path "/1f4a880c-d4aa-4702-ac37-d23785be0851/50d9e0d0-a1bb-41f4-8e56-a7da9b7004cb"
      (reference "C3") (unit 1) (value ".01µ") (footprint "Capacitor_THT:C_Rect_L9.0mm_W2.5mm_P7.50mm_MKT")
    )
    (path "/1f4a880c-d4aa-4702-ac37-d23785be0851/606fff2f-067b-49dd-b576-96b146569965"
      (reference "C4") (unit 1) (value ".01µ") (footprint "Capacitor_THT:C_Rect_L9.0mm_W2.5mm_P7.50mm_MKT")
    )
    (path "/1f4a880c-d4aa-4702-ac37-d23785be0851/770e3959-804f-4332-9e3f-0a3df63667cd"
      (reference "C5") (unit 1) (value ".01µ") (footprint "Capacitor_THT:C_Rect_L9.0mm_W2.5mm_P7.50mm_MKT")
    )
    (path "/1f4a880c-d4aa-4702-ac37-d23785be0851/dbf05bb4-4d07-442d-bb39-0edf5fb5f3bc"
      (reference "C6") (unit 1) (value ".01µ") (footprint "Capacitor_THT:C_Rect_L9.0mm_W2.5mm_P7.50mm_MKT")
    )
    (path "/1f4a880c-d4aa-4702-ac37-d23785be0851/6e9eb950-d072-4f0e-adb2-c52ecb15b0b6"
      (reference "C7") (unit 1) (value ".01µ") (footprint "Capacitor_THT:C_Rect_L9.0mm_W2.5mm_P7.50mm_MKT")
    )
    (path "/1f4a880c-d4aa-4702-ac37-d23785be0851/49db16da-2c84-41d0-990a-3be545d68f81"
      (reference "C8") (unit 1) (value ".01µ") (footprint "Capacitor_THT:C_Rect_L9.0mm_W2.5mm_P7.50mm_MKT")
    )
    (path "/1f4a880c-d4aa-4702-ac37-d23785be0851/a4c7c5c8-3f4d-4090-bcc1-38835a7f76f2"
      (reference "C11") (unit 1) (value ".01µ") (footprint "Capacitor_THT:C_Rect_L9.0mm_W2.5mm_P7.50mm_MKT")
    )
    (path "/1f4a880c-d4aa-4702-ac37-d23785be0851/ff5e42a4-6592-416d-94de-c784966f9848"
      (reference "C12") (unit 1) (value ".01µ") (footprint "Capacitor_THT:C_Rect_L9.0mm_W2.5mm_P7.50mm_MKT")
    )
    (path "/1f4a880c-d4aa-4702-ac37-d23785be0851/def25f7b-c95f-4703-ad2e-245d9b1abbc1"
      (reference "C13") (unit 1) (value ".01µ") (footprint "Capacitor_THT:C_Rect_L9.0mm_W2.5mm_P7.50mm_MKT")
    )
    (path "/1f4a880c-d4aa-4702-ac37-d23785be0851/376fd6a8-9e0d-4577-a6ab-3e7052ef6f9e"
      (reference "C14") (unit 1) (value ".01µ") (footprint "Capacitor_THT:C_Rect_L9.0mm_W2.5mm_P7.50mm_MKT")
    )
    (path "/1f4a880c-d4aa-4702-ac37-d23785be0851/10d4c0ba-c490-4a07-8396-95d9ebf671b5"
      (reference "C15") (unit 1) (value ".01µ") (footprint "Capacitor_THT:C_Rect_L9.0mm_W2.5mm_P7.50mm_MKT")
    )
    (path "/1f4a880c-d4aa-4702-ac37-d23785be0851/30c07f57-4c63-4142-8f36-b4125d3f2deb"
      (reference "C16") (unit 1) (value ".01µ") (footprint "Capacitor_THT:C_Rect_L9.0mm_W2.5mm_P7.50mm_MKT")
    )
    (path "/1f4a880c-d4aa-4702-ac37-d23785be0851/249e7911-844a-4aaa-9f5e-28914a1c272d"
      (reference "C17") (unit 1) (value ".01µ") (footprint "Capacitor_THT:C_Rect_L9.0mm_W2.5mm_P7.50mm_MKT")
    )
    (path "/1f4a880c-d4aa-4702-ac37-d23785be0851/a8a2196b-dd7c-4b18-b2ea-66b60e3c87d6"
      (reference "C18") (unit 1) (value ".01µ") (footprint "Capacitor_THT:C_Rect_L9.0mm_W2.5mm_P7.50mm_MKT")
    )
    (path "/1f4a880c-d4aa-4702-ac37-d23785be0851/dd4ba37c-31ea-4266-ab6a-b6fde8f03467"
      (reference "C19") (unit 1) (value ".01µ") (footprint "Capacitor_THT:C_Rect_L9.0mm_W2.5mm_P7.50mm_MKT")
    )
    (path "/1f4a880c-d4aa-4702-ac37-d23785be0851/d83152ba-7c71-4740-a523-2eb0b67cd768"
      (reference "C20") (unit 1) (value ".01µ") (footprint "Capacitor_THT:C_Rect_L9.0mm_W2.5mm_P7.50mm_MKT")
    )
    (path "/1f4a880c-d4aa-4702-ac37-d23785be0851/aeb1236b-c10f-408e-8b58-cfdb8e93c0fb"
      (reference "C21") (unit 1) (value ".01µ") (footprint "Capacitor_THT:C_Rect_L9.0mm_W2.5mm_P7.50mm_MKT")
    )
    (path "/1f4a880c-d4aa-4702-ac37-d23785be0851/49ba0fe6-4567-4d51-b745-5240f99ee724"
      (reference "C22") (unit 1) (value ".01µ") (footprint "Capacitor_THT:C_Rect_L9.0mm_W2.5mm_P7.50mm_MKT")
    )
    (path "/1f4a880c-d4aa-4702-ac37-d23785be0851/b558fc59-6d52-48a3-af1c-2cd47dbe9176"
      (reference "C23") (unit 1) (value ".01µ") (footprint "Capacitor_THT:C_Rect_L9.0mm_W2.5mm_P7.50mm_MKT")
    )
    (path "/1f4a880c-d4aa-4702-ac37-d23785be0851/dc31b2fb-a635-43f2-9314-6d6455f2c321"
      (reference "C24") (unit 1) (value ".01µ") (footprint "Capacitor_THT:C_Rect_L9.0mm_W2.5mm_P7.50mm_MKT")
    )
    (path "/1f4a880c-d4aa-4702-ac37-d23785be0851/848bc202-79d1-4937-8989-5d52dfb93199"
      (reference "C25") (unit 1) (value ".01µ") (footprint "Capacitor_THT:C_Rect_L9.0mm_W2.5mm_P7.50mm_MKT")
    )
    (path "/1f4a880c-d4aa-4702-ac37-d23785be0851/a6274039-3c05-45f4-bf26-330d34f1a98b"
      (reference "C27") (unit 1) (value ".01µ") (footprint "Capacitor_THT:C_Rect_L9.0mm_W2.5mm_P7.50mm_MKT")
    )
    (path "/1f4a880c-d4aa-4702-ac37-d23785be0851/a4fae304-1969-4285-925f-d3ffcad77cc2"
      (reference "C28") (unit 1) (value ".01µ") (footprint "Capacitor_THT:C_Rect_L9.0mm_W2.5mm_P7.50mm_MKT")
    )
    (path "/1f4a880c-d4aa-4702-ac37-d23785be0851/49dc3ca0-ab64-4a51-afc3-4ac28b189062"
      (reference "C29") (unit 1) (value ".01µ") (footprint "Capacitor_THT:C_Rect_L9.0mm_W2.5mm_P7.50mm_MKT")
    )
    (path "/1f4a880c-d4aa-4702-ac37-d23785be0851/61432f5b-9d92-41dc-9f3d-5138f9821ce6"
      (reference "C30") (unit 1) (value ".01µ") (footprint "Capacitor_THT:C_Rect_L9.0mm_W2.5mm_P7.50mm_MKT")
    )
    (path "/1f4a880c-d4aa-4702-ac37-d23785be0851/58bc7415-e4cd-41d0-842c-48d28b944af1"
      (reference "C31") (unit 1) (value ".01µ") (footprint "Capacitor_THT:C_Rect_L9.0mm_W2.5mm_P7.50mm_MKT")
    )
    (path "/1f4a880c-d4aa-4702-ac37-d23785be0851/e6991704-3f51-47be-a2ed-f27541f763f0"
      (reference "C32") (unit 1) (value ".01µ") (footprint "Capacitor_THT:C_Rect_L9.0mm_W2.5mm_P7.50mm_MKT")
    )
    (path "/1f4a880c-d4aa-4702-ac37-d23785be0851/9582ce5f-9a8c-4ee1-b00d-90a67127d6f4"
      (reference "C33") (unit 1) (value ".01µ") (footprint "Capacitor_THT:C_Rect_L9.0mm_W2.5mm_P7.50mm_MKT")
    )
    (path "/1f4a880c-d4aa-4702-ac37-d23785be0851/99d3201f-de43-42be-9b49-bbf538272a37"
      (reference "C34") (unit 1) (value ".01µ") (footprint "Capacitor_THT:C_Rect_L9.0mm_W2.5mm_P7.50mm_MKT")
    )
    (path "/1f4a880c-d4aa-4702-ac37-d23785be0851/005eb4e5-c0db-4656-99fe-1a9d3c70d366"
      (reference "C35") (unit 1) (value ".01µ") (footprint "Capacitor_THT:C_Rect_L9.0mm_W2.5mm_P7.50mm_MKT")
    )
    (path "/1f4a880c-d4aa-4702-ac37-d23785be0851/e769e7ed-c8be-4bf9-a415-fe8322a8ca7d"
      (reference "C36") (unit 1) (value ".01µ") (footprint "Capacitor_THT:C_Rect_L9.0mm_W2.5mm_P7.50mm_MKT")
    )
    (path "/1f4a880c-d4aa-4702-ac37-d23785be0851/f0ea8ca0-0a73-49cd-ac5d-dd71d65a409c"
      (reference "C37") (unit 1) (value ".01µ") (footprint "Capacitor_THT:C_Rect_L9.0mm_W2.5mm_P7.50mm_MKT")
    )
    (path "/1f4a880c-d4aa-4702-ac37-d23785be0851/7b2358ec-edb0-4300-bf27-1abfa187d8b1"
      (reference "C38") (unit 1) (value ".01µ") (footprint "Capacitor_THT:C_Rect_L9.0mm_W2.5mm_P7.50mm_MKT")
    )
    (path "/1f4a880c-d4aa-4702-ac37-d23785be0851/1b104a3f-bdfe-499c-a42a-87e125763ee9"
      (reference "C39") (unit 1) (value ".01µ") (footprint "Capacitor_THT:C_Rect_L9.0mm_W2.5mm_P7.50mm_MKT")
    )
    (path "/1f4a880c-d4aa-4702-ac37-d23785be0851/5cce8231-a052-4a8e-976f-9f52d3a4f118"
      (reference "C40") (unit 1) (value ".01µ") (footprint "Capacitor_THT:C_Rect_L9.0mm_W2.5mm_P7.50mm_MKT")
    )
    (path "/1f4a880c-d4aa-4702-ac37-d23785be0851/d5a2a24f-a34b-4d1d-9a79-0d1e1fb14ea3"
      (reference "C41") (unit 1) (value ".01µ") (footprint "Capacitor_THT:C_Rect_L9.0mm_W2.5mm_P7.50mm_MKT")
    )
    (path "/1f4a880c-d4aa-4702-ac37-d23785be0851/468bb054-5e60-4146-8a51-19b5f1669306"
      (reference "C42") (unit 1) (value ".01µ") (footprint "Capacitor_THT:C_Rect_L9.0mm_W2.5mm_P7.50mm_MKT")
    )
    (path "/1f4a880c-d4aa-4702-ac37-d23785be0851/2a172926-9f7e-4d4b-8a20-c0ce4ba810b8"
      (reference "C43") (unit 1) (value ".01µ") (footprint "Capacitor_THT:C_Rect_L9.0mm_W2.5mm_P7.50mm_MKT")
    )
    (path "/1f4a880c-d4aa-4702-ac37-d23785be0851/26ce5bfd-1ace-4f46-bbeb-9f90c244f23e"
      (reference "C44") (unit 1) (value ".01µ") (footprint "Capacitor_THT:C_Rect_L9.0mm_W2.5mm_P7.50mm_MKT")
    )
    (path "/1f4a880c-d4aa-4702-ac37-d23785be0851/13b0ce2d-0e03-4272-83cb-121b739b619e"
      (reference "C45") (unit 1) (value ".01µ") (footprint "Capacitor_THT:C_Rect_L9.0mm_W2.5mm_P7.50mm_MKT")
    )
    (path "/1f4a880c-d4aa-4702-ac37-d23785be0851/f68aaa5b-4e47-405e-87aa-9f23c39b5166"
      (reference "C46") (unit 1) (value ".01µ") (footprint "Capacitor_THT:C_Rect_L9.0mm_W2.5mm_P7.50mm_MKT")
    )
    (path "/1f4a880c-d4aa-4702-ac37-d23785be0851/3e0d207f-9dac-4ed5-a8c3-eb6efb9ca937"
      (reference "C47") (unit 1) (value ".01µ") (footprint "Capacitor_THT:C_Rect_L9.0mm_W2.5mm_P7.50mm_MKT")
    )
    (path "/1f4a880c-d4aa-4702-ac37-d23785be0851/1a241639-7bcb-4035-ad3a-9c0ad25bbd55"
      (reference "C48") (unit 1) (value ".01µ") (footprint "Capacitor_THT:C_Rect_L9.0mm_W2.5mm_P7.50mm_MKT")
    )
    (path "/1f4a880c-d4aa-4702-ac37-d23785be0851/cdcdafc9-4f4f-4f31-982e-2c7211c337b7"
      (reference "C49") (unit 1) (value ".01µ") (footprint "Capacitor_THT:C_Rect_L9.0mm_W2.5mm_P7.50mm_MKT")
    )
    (path "/1f4a880c-d4aa-4702-ac37-d23785be0851/d489d241-c272-48c9-9440-9c7018840520"
      (reference "C50") (unit 1) (value ".01µ") (footprint "Capacitor_THT:C_Rect_L9.0mm_W2.5mm_P7.50mm_MKT")
    )
    (path "/1f4a880c-d4aa-4702-ac37-d23785be0851/c6b8b50a-9321-4d6f-a7b8-5f4d25ffe40e"
      (reference "C51") (unit 1) (value ".01µ") (footprint "Capacitor_THT:C_Rect_L9.0mm_W2.5mm_P7.50mm_MKT")
    )
    (path "/1f4a880c-d4aa-4702-ac37-d23785be0851/7c3b637d-fd86-4ee2-89b9-c5c94f0e64eb"
      (reference "C52") (unit 1) (value ".01µ") (footprint "Capacitor_THT:C_Rect_L9.0mm_W2.5mm_P7.50mm_MKT")
    )
    (path "/1f4a880c-d4aa-4702-ac37-d23785be0851/8d631204-f928-4214-8aff-f025db6e7c92"
      (reference "C53") (unit 1) (value ".01µ") (footprint "Capacitor_THT:C_Rect_L9.0mm_W2.5mm_P7.50mm_MKT")
    )
    (path "/1f4a880c-d4aa-4702-ac37-d23785be0851/fae467d7-123a-4af4-9660-fc9b0f017315"
      (reference "C54") (unit 1) (value ".01µ") (footprint "Capacitor_THT:C_Rect_L9.0mm_W2.5mm_P7.50mm_MKT")
    )
    (path "/1f4a880c-d4aa-4702-ac37-d23785be0851/d6badaa7-b87c-4356-af87-82d02f833a8b"
      (reference "C55") (unit 1) (value ".01µ") (footprint "Capacitor_THT:C_Rect_L9.0mm_W2.5mm_P7.50mm_MKT")
    )
    (path "/1f4a880c-d4aa-4702-ac37-d23785be0851/8c5ce942-3ced-4902-bf00-b95eab8ffc08"
      (reference "C56") (unit 1) (value ".01µ") (footprint "Capacitor_THT:C_Rect_L9.0mm_W2.5mm_P7.50mm_MKT")
    )
    (path "/1f4a880c-d4aa-4702-ac37-d23785be0851/0ddf81b3-c3ce-4c88-acd4-0e418c02b9bb"
      (reference "C57") (unit 1) (value ".01µ") (footprint "Capacitor_THT:C_Rect_L9.0mm_W2.5mm_P7.50mm_MKT")
    )
    (path "/1f4a880c-d4aa-4702-ac37-d23785be0851/c52afaa2-25fd-4023-bbb4-16f64fc04562"
      (reference "C58") (unit 1) (value ".01µ") (footprint "Capacitor_THT:C_Rect_L9.0mm_W2.5mm_P7.50mm_MKT")
    )
    (path "/1f4a880c-d4aa-4702-ac37-d23785be0851/5014d3d9-057c-46b0-a92c-3cec10dfcf4c"
      (reference "C59") (unit 1) (value ".01µ") (footprint "Capacitor_THT:C_Rect_L9.0mm_W2.5mm_P7.50mm_MKT")
    )
    (path "/1f4a880c-d4aa-4702-ac37-d23785be0851/c3e197ef-c23f-4171-a9d5-89b9992f55c4"
      (reference "C60") (unit 1) (value ".01µ") (footprint "Capacitor_THT:C_Rect_L9.0mm_W2.5mm_P7.50mm_MKT")
    )
    (path "/1f4a880c-d4aa-4702-ac37-d23785be0851/d702ddc4-0336-45d8-8af1-95a25c9e6c40"
      (reference "C61") (unit 1) (value ".01µ") (footprint "Capacitor_THT:C_Rect_L9.0mm_W2.5mm_P7.50mm_MKT")
    )
    (path "/1f4a880c-d4aa-4702-ac37-d23785be0851/5865d95f-04bd-4287-a891-b95eeaf98c49"
      (reference "C62") (unit 1) (value ".01µ") (footprint "Capacitor_THT:C_Rect_L9.0mm_W2.5mm_P7.50mm_MKT")
    )
    (path "/1f4a880c-d4aa-4702-ac37-d23785be0851/d6e9c7bd-8458-4282-8c6e-4ed62cefdf47"
      (reference "C63") (unit 1) (value ".01µ") (footprint "Capacitor_THT:C_Rect_L9.0mm_W2.5mm_P7.50mm_MKT")
    )
    (path "/1f4a880c-d4aa-4702-ac37-d23785be0851/11e43be2-9e54-41ba-931e-b30f690e061d"
      (reference "C64") (unit 1) (value ".01µ") (footprint "Capacitor_THT:C_Rect_L9.0mm_W2.5mm_P7.50mm_MKT")
    )
    (path "/1f4a880c-d4aa-4702-ac37-d23785be0851/0eef6fec-605e-4a58-8cf4-b82898257ca9"
      (reference "C65") (unit 1) (value ".01µ") (footprint "Capacitor_THT:C_Rect_L9.0mm_W2.5mm_P7.50mm_MKT")
    )
    (path "/1f4a880c-d4aa-4702-ac37-d23785be0851/cff75d49-e400-433e-96af-8ecc0ffc8bc5"
      (reference "C66") (unit 1) (value ".01µ") (footprint "Capacitor_THT:C_Rect_L9.0mm_W2.5mm_P7.50mm_MKT")
    )
    (path "/1f4a880c-d4aa-4702-ac37-d23785be0851/d065491f-aa95-4a7f-81e6-a81d2fe3c229"
      (reference "C67") (unit 1) (value ".01µ") (footprint "Capacitor_THT:C_Rect_L9.0mm_W2.5mm_P7.50mm_MKT")
    )
    (path "/1f4a880c-d4aa-4702-ac37-d23785be0851/7485bdea-c308-4764-8fda-8a0919bd8d2d"
      (reference "C68") (unit 1) (value ".01µ") (footprint "Capacitor_THT:C_Rect_L9.0mm_W2.5mm_P7.50mm_MKT")
    )
    (path "/1f4a880c-d4aa-4702-ac37-d23785be0851/ab4266cc-898d-4b21-8730-46204c05adf5"
      (reference "C69") (unit 1) (value ".01µ") (footprint "Capacitor_THT:C_Rect_L9.0mm_W2.5mm_P7.50mm_MKT")
    )
    (path "/1f4a880c-d4aa-4702-ac37-d23785be0851/d0f35a98-6ba6-47f4-b0f4-522b2cdc3453"
      (reference "C70") (unit 1) (value ".01µ") (footprint "Capacitor_THT:C_Rect_L9.0mm_W2.5mm_P7.50mm_MKT")
    )
    (path "/1f4a880c-d4aa-4702-ac37-d23785be0851/0d09a070-1138-4a91-8fc8-54c4843c1e2b"
      (reference "C71") (unit 1) (value ".01µ") (footprint "Capacitor_THT:C_Rect_L9.0mm_W2.5mm_P7.50mm_MKT")
    )
    (path "/1f4a880c-d4aa-4702-ac37-d23785be0851/dc6597f0-514d-45d6-9a4f-e771ef2548f8"
      (reference "C72") (unit 1) (value ".01µ") (footprint "Capacitor_THT:C_Rect_L9.0mm_W2.5mm_P7.50mm_MKT")
    )
    (path "/1f4a880c-d4aa-4702-ac37-d23785be0851/35e3614c-2b25-402a-9a92-28b9f74ed5e1"
      (reference "C73") (unit 1) (value ".01µ") (footprint "Capacitor_THT:C_Rect_L9.0mm_W2.5mm_P7.50mm_MKT")
    )
    (path "/1f4a880c-d4aa-4702-ac37-d23785be0851/e294ab96-05fa-481b-b34d-297b19e63546"
      (reference "C74") (unit 1) (value ".01µ") (footprint "Capacitor_THT:C_Rect_L9.0mm_W2.5mm_P7.50mm_MKT")
    )
    (path "/1f4a880c-d4aa-4702-ac37-d23785be0851/8b903039-f099-426b-8624-a3f9f9c2ff9a"
      (reference "C75") (unit 1) (value ".01µ") (footprint "Capacitor_THT:C_Rect_L9.0mm_W2.5mm_P7.50mm_MKT")
    )
    (path "/1f4a880c-d4aa-4702-ac37-d23785be0851/12a9db07-a5e7-4607-b8a6-f135b2691ac9"
      (reference "C76") (unit 1) (value ".01µ") (footprint "Capacitor_THT:C_Rect_L9.0mm_W2.5mm_P7.50mm_MKT")
    )
    (path "/1f4a880c-d4aa-4702-ac37-d23785be0851/25af5885-576f-4715-a76c-cbb3053fb88d"
      (reference "C77") (unit 1) (value ".01µ") (footprint "Capacitor_THT:C_Rect_L9.0mm_W2.5mm_P7.50mm_MKT")
    )
    (path "/1f4a880c-d4aa-4702-ac37-d23785be0851/64e8814f-7e6c-416b-bcd3-ce9ab259970c"
      (reference "C78") (unit 1) (value ".01µ") (footprint "Capacitor_THT:C_Rect_L9.0mm_W2.5mm_P7.50mm_MKT")
    )
    (path "/1f4a880c-d4aa-4702-ac37-d23785be0851/30fb1c88-142a-46d4-bb15-66e6e2d1f9bb"
      (reference "C79") (unit 1) (value ".01µ") (footprint "Capacitor_THT:C_Rect_L9.0mm_W2.5mm_P7.50mm_MKT")
    )
    (path "/1f4a880c-d4aa-4702-ac37-d23785be0851/0bdbffb5-be4b-4d25-8f12-277e48351ae7"
      (reference "C80") (unit 1) (value "6.8µ 35V") (footprint "Capacitor_THT:CP_Radial_D5.0mm_P2.50mm")
    )
    (path "/1f4a880c-d4aa-4702-ac37-d23785be0851/8b057691-ce99-4256-a6c7-b90ec614f273"
      (reference "C81") (unit 1) (value "6.8µ 35V") (footprint "Capacitor_THT:CP_Radial_D5.0mm_P2.50mm")
    )
    (path "/1f4a880c-d4aa-4702-ac37-d23785be0851/11bde4aa-1a06-4f8c-b77b-349cdffdb5c4"
      (reference "C82") (unit 1) (value "6.8µ 35V") (footprint "Capacitor_THT:CP_Radial_D5.0mm_P2.50mm")
    )
    (path "/1f4a880c-d4aa-4702-ac37-d23785be0851/7841597c-bcee-421a-8502-3046919a0c1e"
      (reference "C83") (unit 1) (value "6.8µ 35V") (footprint "Capacitor_THT:CP_Radial_D5.0mm_P2.50mm")
    )
    (path "/1f4a880c-d4aa-4702-ac37-d23785be0851/551a966b-69b0-4935-95b8-0f8e916dbec3"
      (reference "C84") (unit 1) (value "6.8µ 35V") (footprint "Capacitor_THT:CP_Radial_D5.0mm_P2.50mm")
    )
    (path "/1f4a880c-d4aa-4702-ac37-d23785be0851/c91de650-2ff5-42b4-9fc5-97ec2d62108e"
      (reference "C85") (unit 1) (value "6.8µ 35V") (footprint "Capacitor_THT:CP_Radial_D5.0mm_P2.50mm")
    )
    (path "/9bd2903d-8641-4e3c-bd25-a7a8083176bb/1fbc895a-3d93-421e-8a49-692b9f1065f0"
      (reference "J1") (unit 1) (value "6-high_connector") (footprint "DEC components:6-high board")
    )
    (path "/3f39fe18-c5ca-49b9-9555-18c12117d390/06849207-00de-45c6-9c74-291ecff56d6c"
      (reference "JP1") (unit 1) (value "Start Vector 2") (footprint "Connector_PinHeader_2.54mm:PinHeader_1x02_P2.54mm_Vertical")
    )
    (path "/3f39fe18-c5ca-49b9-9555-18c12117d390/2602c675-fc6e-4a89-88b9-a8e097452684"
      (reference "JP2") (unit 1) (value "Start Vector 3") (footprint "Connector_PinHeader_2.54mm:PinHeader_1x02_P2.54mm_Vertical")
    )
    (path "/3f39fe18-c5ca-49b9-9555-18c12117d390/dcc78fc8-8607-4c82-baf7-000890247d03"
      (reference "JP3") (unit 1) (value "Start Vector 4") (footprint "Connector_PinHeader_2.54mm:PinHeader_1x02_P2.54mm_Vertical")
    )
    (path "/3f39fe18-c5ca-49b9-9555-18c12117d390/8fc03e4e-7545-4aa6-9296-4ce0d495853d"
      (reference "JP4") (unit 1) (value "Start Vector 5") (footprint "Connector_PinHeader_2.54mm:PinHeader_1x02_P2.54mm_Vertical")
    )
    (path "/3f39fe18-c5ca-49b9-9555-18c12117d390/04b8e903-9b4a-4437-a707-137b57e926ed"
      (reference "JP5") (unit 1) (value "Start Vector 6") (footprint "Connector_PinHeader_2.54mm:PinHeader_1x02_P2.54mm_Vertical")
    )
    (path "/3f39fe18-c5ca-49b9-9555-18c12117d390/d7715439-df92-4e2a-b0c5-0b5b8d3608b8"
      (reference "JP6") (unit 1) (value "Start Vector 7") (footprint "Connector_PinHeader_2.54mm:PinHeader_1x02_P2.54mm_Vertical")
    )
    (path "/3f39fe18-c5ca-49b9-9555-18c12117d390/3a9d9b4e-7c73-4939-b62a-647a21ebdfb1"
      (reference "JP7") (unit 1) (value "(W7)") (footprint "Connector_PinHeader_2.54mm:PinHeader_1x02_P2.54mm_Vertical")
    )
    (path "/3f39fe18-c5ca-49b9-9555-18c12117d390/b5d4cba5-60e8-4e6b-a2c5-eb325e5037b6"
      (reference "JP8") (unit 1) (value "(W8)") (footprint "Connector_PinHeader_2.54mm:PinHeader_1x02_P2.54mm_Vertical")
    )
    (path "/3f39fe18-c5ca-49b9-9555-18c12117d390/af55a326-0969-4ad2-8283-adca97dd91a3"
      (reference "JP9") (unit 1) (value "(W9)") (footprint "Connector_PinHeader_2.54mm:PinHeader_1x02_P2.54mm_Vertical")
    )
    (path "/5f417d86-4cd0-4426-a8a7-befaa992f0f0/7491b01d-a352-4054-a789-135b4baadee5"
      (reference "JP10") (unit 1) (value "A=B wired AND") (footprint "Connector_PinHeader_2.54mm:PinHeader_1x02_P2.54mm_Vertical")
    )
    (path "/5f417d86-4cd0-4426-a8a7-befaa992f0f0/d73e0794-a32f-4897-bf27-08ddba3f111e"
      (reference "JP11") (unit 1) (value "A=B wired AND") (footprint "Connector_PinHeader_2.54mm:PinHeader_1x02_P2.54mm_Vertical")
    )
    (path "/ce0d1a0b-4f10-4b36-b5ac-c80729f9351e/c25647b1-45e8-4f2e-a8c5-1996e742f60f"
      (reference "JP12") (unit 1) (value "A=B wired AND") (footprint "Connector_PinHeader_2.54mm:PinHeader_1x02_P2.54mm_Vertical")
    )
    (path "/ce0d1a0b-4f10-4b36-b5ac-c80729f9351e/164531d4-37ba-4bd3-94c6-bd5244140db8"
      (reference "JP13") (unit 1) (value "A=B wired AND") (footprint "Connector_PinHeader_2.54mm:PinHeader_1x02_P2.54mm_Vertical")
    )
    (path "/e49a1fc6-e358-4f79-bd57-ad07a0a04c0a"
      (reference "OSHW_LOGO1") (unit 1) (value "Logo_Open_Hardware_Large") (footprint "Symbol:OSHW-Logo2_9.8x8mm_SilkScreen")
    )
    (path "/1f29d2e6-7cd1-4d55-a840-cbd748f8e68f/0a4af151-885b-4bca-a3aa-0a9c26c4934f"
      (reference "R1") (unit 1) (value "330") (footprint "Resistor_THT:R_Axial_DIN0204_L3.6mm_D1.6mm_P7.62mm_Horizontal")
    )
    (path "/1f29d2e6-7cd1-4d55-a840-cbd748f8e68f/4a405cee-4359-4411-8c1b-26cfe93c9bd3"
      (reference "R2") (unit 1) (value "560") (footprint "Resistor_THT:R_Axial_DIN0204_L3.6mm_D1.6mm_P7.62mm_Horizontal")
    )
    (path "/dbed59f0-bc8e-48d6-8f9b-2971a76ee3ea/f735d780-a9f1-4f82-81ad-8b5ada512cbc"
      (reference "R3") (unit 1) (value "330") (footprint "Resistor_THT:R_Axial_DIN0204_L3.6mm_D1.6mm_P7.62mm_Horizontal")
    )
    (path "/dbed59f0-bc8e-48d6-8f9b-2971a76ee3ea/e5cf8348-9204-4914-ab9a-0fd960fd2852"
      (reference "R4") (unit 1) (value "150") (footprint "Resistor_THT:R_Axial_DIN0204_L3.6mm_D1.6mm_P7.62mm_Horizontal")
    )
    (path "/3f39fe18-c5ca-49b9-9555-18c12117d390/1a9a08d8-c533-446f-a287-29cb768363a1"
      (reference "R5") (unit 1) (value "10k") (footprint "Resistor_THT:R_Axial_DIN0204_L3.6mm_D1.6mm_P7.62mm_Horizontal")
    )
    (path "/3f39fe18-c5ca-49b9-9555-18c12117d390/ca767082-76b6-4bb6-9e95-f4cf82e51985"
      (reference "R6") (unit 1) (value "10k") (footprint "Resistor_THT:R_Axial_DIN0204_L3.6mm_D1.6mm_P7.62mm_Horizontal")
    )
    (path "/3f39fe18-c5ca-49b9-9555-18c12117d390/9f8f9d2a-c23b-4648-8b74-3124362430b7"
      (reference "R7") (unit 1) (value "10k") (footprint "Resistor_THT:R_Axial_DIN0204_L3.6mm_D1.6mm_P7.62mm_Horizontal")
    )
    (path "/3f39fe18-c5ca-49b9-9555-18c12117d390/abc0b893-4092-4548-b351-be8322532333"
      (reference "R8") (unit 1) (value "10k") (footprint "Resistor_THT:R_Axial_DIN0204_L3.6mm_D1.6mm_P7.62mm_Horizontal")
    )
    (path "/3f39fe18-c5ca-49b9-9555-18c12117d390/b6b92e71-2bc4-4769-af8c-09b3f5fa7ba0"
      (reference "R9") (unit 1) (value "10k") (footprint "Resistor_THT:R_Axial_DIN0204_L3.6mm_D1.6mm_P7.62mm_Horizontal")
    )
    (path "/3f39fe18-c5ca-49b9-9555-18c12117d390/de127ad1-3c89-4f1c-a3d2-8d1e42371f29"
      (reference "R10") (unit 1) (value "10k") (footprint "Resistor_THT:R_Axial_DIN0204_L3.6mm_D1.6mm_P7.62mm_Horizontal")
    )
    (path "/5f417d86-4cd0-4426-a8a7-befaa992f0f0/10a6a933-10d9-4d69-9380-c37885545b6e"
      (reference "R11") (unit 1) (value "330") (footprint "Resistor_THT:R_Axial_DIN0204_L3.6mm_D1.6mm_P7.62mm_Horizontal")
    )
    (path "/5f417d86-4cd0-4426-a8a7-befaa992f0f0/461f57d4-4edf-4e7d-b3f2-dbfd6a80cba8"
      (reference "R12") (unit 1) (value "330") (footprint "Resistor_THT:R_Axial_DIN0204_L3.6mm_D1.6mm_P7.62mm_Horizontal")
    )
    (path "/ce0d1a0b-4f10-4b36-b5ac-c80729f9351e/8f4609c6-ac7c-47b0-87c9-06093a91fa1c"
      (reference "R13") (unit 1) (value "330") (footprint "Resistor_THT:R_Axial_DIN0204_L3.6mm_D1.6mm_P7.62mm_Horizontal")
    )
    (path "/ce0d1a0b-4f10-4b36-b5ac-c80729f9351e/bf23a826-9b61-477a-bba9-5f1caf8d6f86"
      (reference "R14") (unit 1) (value "330") (footprint "Resistor_THT:R_Axial_DIN0204_L3.6mm_D1.6mm_P7.62mm_Horizontal")
    )
    (path "/dbed59f0-bc8e-48d6-8f9b-2971a76ee3ea/90ec1756-1fee-4ab5-9b4b-ecc712fd2be2"
      (reference "R15") (unit 1) (value "330") (footprint "Resistor_THT:R_Axial_DIN0204_L3.6mm_D1.6mm_P7.62mm_Horizontal")
    )
    (path "/dbed59f0-bc8e-48d6-8f9b-2971a76ee3ea/d17ea0c0-7782-438f-baf1-32360f1e38bf"
      (reference "R16") (unit 1) (value "150") (footprint "Resistor_THT:R_Axial_DIN0204_L3.6mm_D1.6mm_P7.62mm_Horizontal")
    )
    (path "/3f39fe18-c5ca-49b9-9555-18c12117d390/15f18405-a526-4a1f-ac11-22c402b99fa1"
      (reference "R18") (unit 1) (value "10k") (footprint "Resistor_THT:R_Axial_DIN0204_L3.6mm_D1.6mm_P7.62mm_Horizontal")
    )
    (path "/1f29d2e6-7cd1-4d55-a840-cbd748f8e68f/327b2f49-8560-42be-aba2-68171f21815d"
      (reference "U2") (unit 1) (value "74S174") (footprint "Package_DIP:DIP-16_W7.62mm")
    )
    (path "/35e08602-8830-48c6-8e4c-379631e224ea/16c9e72d-5bc6-4b6b-8603-f028480c20c3"
      (reference "U3") (unit 1) (value "74S153") (footprint "Package_DIP:DIP-16_W7.62mm")
    )
    (path "/35e08602-8830-48c6-8e4c-379631e224ea/6378329a-1197-47e0-b4d1-1cf868e9c128"
      (reference "U4") (unit 1) (value "74S153") (footprint "Package_DIP:DIP-16_W7.62mm")
    )
    (path "/35e08602-8830-48c6-8e4c-379631e224ea/553e3f04-844a-4fa4-9b12-0d6461ae34d5"
      (reference "U5") (unit 1) (value "74S153") (footprint "Package_DIP:DIP-16_W7.62mm")
    )
    (path "/35e08602-8830-48c6-8e4c-379631e224ea/7b347f85-5227-4a17-9348-61083271a77f"
      (reference "U6") (unit 1) (value "74S04") (footprint "Package_DIP:DIP-14_W7.62mm")
    )
    (path "/35e08602-8830-48c6-8e4c-379631e224ea/e2c53f8c-8b72-4656-b741-5f1ade35ee7a"
      (reference "U6") (unit 2) (value "74S04") (footprint "Package_DIP:DIP-14_W7.62mm")
    )
    (path "/35e08602-8830-48c6-8e4c-379631e224ea/67019c68-a231-48ae-ba2a-074cf0449648"
      (reference "U6") (unit 3) (value "74S04") (footprint "Package_DIP:DIP-14_W7.62mm")
    )
    (path "/35e08602-8830-48c6-8e4c-379631e224ea/71b931a3-7ebb-4cc6-842c-3d78d1134b96"
      (reference "U6") (unit 4) (value "74S04") (footprint "Package_DIP:DIP-14_W7.62mm")
    )
    (path "/35e08602-8830-48c6-8e4c-379631e224ea/465bb2a0-cc00-4081-8548-32f4f1a7a39d"
      (reference "U6") (unit 5) (value "74S04") (footprint "Package_DIP:DIP-14_W7.62mm")
    )
    (path "/35e08602-8830-48c6-8e4c-379631e224ea/63b69774-e2d2-42a4-af8c-b70dacbd778b"
      (reference "U6") (unit 6) (value "74S04") (footprint "Package_DIP:DIP-14_W7.62mm")
    )
    (path "/ffcdc695-9b29-4dc3-bf5f-3980055b61df/6a805bd6-61cf-4e41-9910-ce8c43e65fb0"
      (reference "U6") (unit 7) (value "74S04") (footprint "Package_DIP:DIP-14_W7.62mm")
    )
    (path "/3f39fe18-c5ca-49b9-9555-18c12117d390/70c164ba-032f-439b-b399-757e4c70b44b"
      (reference "U7") (unit 1) (value "74S11") (footprint "Package_DIP:DIP-14_W7.62mm")
    )
    (path "/3f39fe18-c5ca-49b9-9555-18c12117d390/2e9f5253-e489-4ef4-b560-173666ebe7d2"
      (reference "U7") (unit 2) (value "74S11") (footprint "Package_DIP:DIP-14_W7.62mm")
    )
    (path "/3f39fe18-c5ca-49b9-9555-18c12117d390/85471588-f40a-43e8-b789-c03e954f8a76"
      (reference "U7") (unit 3) (value "74S11") (footprint "Package_DIP:DIP-14_W7.62mm")
    )
    (path "/ffcdc695-9b29-4dc3-bf5f-3980055b61df/4585c0fc-2709-410a-a75c-e0eb4d5a9d7b"
      (reference "U7") (unit 4) (value "74S11") (footprint "Package_DIP:DIP-14_W7.62mm")
    )
    (path "/3f39fe18-c5ca-49b9-9555-18c12117d390/acc702bb-48b7-46d3-aca9-247c05cbff38"
      (reference "U8") (unit 1) (value "74S153") (footprint "Package_DIP:DIP-16_W7.62mm")
    )
    (path "/3f39fe18-c5ca-49b9-9555-18c12117d390/c3013258-ef9c-4a56-a0cc-13ece6960d50"
      (reference "U11") (unit 1) (value "74S04") (footprint "Package_DIP:DIP-14_W7.62mm")
    )
    (path "/3f39fe18-c5ca-49b9-9555-18c12117d390/6e4c084a-466e-42f5-a1e7-5bfa84e0feb5"
      (reference "U11") (unit 2) (value "74S04") (footprint "Package_DIP:DIP-14_W7.62mm")
    )
    (path "/ffcdc695-9b29-4dc3-bf5f-3980055b61df/f0a1bbcc-5a6b-4f47-8cad-756f46e13d8f"
      (reference "U11") (unit 3) (value "74S04") (footprint "Package_DIP:DIP-14_W7.62mm")
    )
    (path "/ffcdc695-9b29-4dc3-bf5f-3980055b61df/663cabf9-477b-40ca-8a53-642d996680cf"
      (reference "U11") (unit 4) (value "74S04") (footprint "Package_DIP:DIP-14_W7.62mm")
    )
    (path "/5f417d86-4cd0-4426-a8a7-befaa992f0f0/627cecfe-10ce-44c8-ad5d-eba7b11c39fc"
      (reference "U11") (unit 5) (value "74S04") (footprint "Package_DIP:DIP-14_W7.62mm")
    )
    (path "/1f29d2e6-7cd1-4d55-a840-cbd748f8e68f/ad40ee29-cf8f-4998-9645-aff2f59903bd"
      (reference "U11") (unit 6) (value "74S04") (footprint "Package_DIP:DIP-14_W7.62mm")
    )
    (path "/ffcdc695-9b29-4dc3-bf5f-3980055b61df/c7a53ebe-7676-4aa1-a352-a8b30c6bcbc0"
      (reference "U11") (unit 7) (value "74S04") (footprint "Package_DIP:DIP-14_W7.62mm")
    )
    (path "/1f29d2e6-7cd1-4d55-a840-cbd748f8e68f/fc92ba14-db81-47c1-bec3-cc72b3afd91e"
      (reference "U12") (unit 1) (value "74S174") (footprint "Package_DIP:DIP-16_W7.62mm")
    )
    (path "/35e08602-8830-48c6-8e4c-379631e224ea/459a3851-664b-425b-8f8d-91dce729789d"
      (reference "U13") (unit 1) (value "74S153") (footprint "Package_DIP:DIP-16_W7.62mm")
    )
    (path "/35e08602-8830-48c6-8e4c-379631e224ea/c8c6b514-329c-4733-8bed-6cbab60b8232"
      (reference "U14") (unit 1) (value "74S153") (footprint "Package_DIP:DIP-16_W7.62mm")
    )
    (path "/35e08602-8830-48c6-8e4c-379631e224ea/b16a1e93-e544-4738-bfc3-5a6513d55102"
      (reference "U15") (unit 1) (value "74S153") (footprint "Package_DIP:DIP-16_W7.62mm")
    )
    (path "/ffcdc695-9b29-4dc3-bf5f-3980055b61df/160d9b48-8b4c-4c21-83a7-e64a170d2db7"
      (reference "U16") (unit 1) (value "74S10") (footprint "Package_DIP:DIP-14_W7.62mm")
    )
    (path "/3f39fe18-c5ca-49b9-9555-18c12117d390/b623d4d6-2a8e-4c21-9d1c-95fd219f1cd7"
      (reference "U16") (unit 2) (value "74S10") (footprint "Package_DIP:DIP-14_W7.62mm")
    )
    (path "/3f39fe18-c5ca-49b9-9555-18c12117d390/35120738-e492-4de2-9163-4b02df68c7a5"
      (reference "U16") (unit 3) (value "74S10") (footprint "Package_DIP:DIP-14_W7.62mm")
    )
    (path "/ffcdc695-9b29-4dc3-bf5f-3980055b61df/a89f66ce-d11c-4dff-9329-62d28a00925f"
      (reference "U16") (unit 4) (value "74S10") (footprint "Package_DIP:DIP-14_W7.62mm")
    )
    (path "/3f39fe18-c5ca-49b9-9555-18c12117d390/ada4d18b-698b-437e-a6c1-0e6665a7ffd2"
      (reference "U17") (unit 1) (value "74S153") (footprint "Package_DIP:DIP-16_W7.62mm")
    )
    (path "/3f39fe18-c5ca-49b9-9555-18c12117d390/55915a87-17e7-4502-83f1-efccb14ce635"
      (reference "U18") (unit 1) (value "74S04") (footprint "Package_DIP:DIP-14_W7.62mm")
    )
    (path "/3f39fe18-c5ca-49b9-9555-18c12117d390/03e49033-552d-4ebb-aad4-410d2eac35ee"
      (reference "U18") (unit 2) (value "74S04") (footprint "Package_DIP:DIP-14_W7.62mm")
    )
    (path "/3f39fe18-c5ca-49b9-9555-18c12117d390/661bb960-243a-4711-8e22-c71a0a071a86"
      (reference "U18") (unit 3) (value "74S04") (footprint "Package_DIP:DIP-14_W7.62mm")
    )
    (path "/3f39fe18-c5ca-49b9-9555-18c12117d390/61d821ee-c7bd-4d2b-b7e9-4e81ee1b8602"
      (reference "U18") (unit 4) (value "74S04") (footprint "Package_DIP:DIP-14_W7.62mm")
    )
    (path "/3f39fe18-c5ca-49b9-9555-18c12117d390/09f668f5-d745-4fa1-b44b-6e8cc95094a8"
      (reference "U18") (unit 5) (value "74S04") (footprint "Package_DIP:DIP-14_W7.62mm")
    )
    (path "/3f39fe18-c5ca-49b9-9555-18c12117d390/21aebbca-77b7-4716-9e34-729899f8b713"
      (reference "U18") (unit 6) (value "74S04") (footprint "Package_DIP:DIP-14_W7.62mm")
    )
    (path "/ffcdc695-9b29-4dc3-bf5f-3980055b61df/490ff861-9b1a-489c-8371-d793232cccff"
      (reference "U18") (unit 7) (value "74S04") (footprint "Package_DIP:DIP-14_W7.62mm")
    )
    (path "/1f29d2e6-7cd1-4d55-a840-cbd748f8e68f/f4985373-273d-4dcf-af7e-9b45ffd97d48"
      (reference "U19") (unit 1) (value "74S174") (footprint "Package_DIP:DIP-16_W7.62mm")
    )
    (path "/35e08602-8830-48c6-8e4c-379631e224ea/90002243-d116-43a2-9350-999a8c9493bf"
      (reference "U20") (unit 1) (value "74S153") (footprint "Package_DIP:DIP-16_W7.62mm")
    )
    (path "/35e08602-8830-48c6-8e4c-379631e224ea/c5e2db4c-4235-433d-92fe-e2f662723a2c"
      (reference "U21") (unit 1) (value "74S153") (footprint "Package_DIP:DIP-16_W7.62mm")
    )
    (path "/35e08602-8830-48c6-8e4c-379631e224ea/5b3b48cc-76e2-4c6e-b7fd-68f066ef3b9f"
      (reference "U22") (unit 1) (value "74S153") (footprint "Package_DIP:DIP-16_W7.62mm")
    )
    (path "/3f39fe18-c5ca-49b9-9555-18c12117d390/2ce67d90-664f-49d6-8f19-6ac379b781cd"
      (reference "U23") (unit 1) (value "74S00") (footprint "Package_DIP:DIP-14_W7.62mm")
    )
    (path "/3f39fe18-c5ca-49b9-9555-18c12117d390/385bd0e4-d606-4f16-8f07-fdbc2c7ae39b"
      (reference "U23") (unit 2) (value "74S00") (footprint "Package_DIP:DIP-14_W7.62mm")
    )
    (path "/ffcdc695-9b29-4dc3-bf5f-3980055b61df/797b2bba-368f-49f9-9ac7-52ffbea1eaaa"
      (reference "U23") (unit 3) (value "74S00") (footprint "Package_DIP:DIP-14_W7.62mm")
    )
    (path "/ffcdc695-9b29-4dc3-bf5f-3980055b61df/497606aa-32f5-439c-b235-76cffc708613"
      (reference "U23") (unit 4) (value "74S00") (footprint "Package_DIP:DIP-14_W7.62mm")
    )
    (path "/ffcdc695-9b29-4dc3-bf5f-3980055b61df/88ea28b7-bd07-44bb-9b5f-977fa19e1818"
      (reference "U23") (unit 5) (value "74S00") (footprint "Package_DIP:DIP-14_W7.62mm")
    )
    (path "/3f39fe18-c5ca-49b9-9555-18c12117d390/4d76d10f-f1c6-41dd-97de-08eafa92197c"
      (reference "U24") (unit 1) (value "74S153") (footprint "Package_DIP:DIP-16_W7.62mm")
    )
    (path "/3f39fe18-c5ca-49b9-9555-18c12117d390/792562a2-dd32-4dd7-8be9-c985c4aa6b30"
      (reference "U25") (unit 1) (value "74S153") (footprint "Package_DIP:DIP-16_W7.62mm")
    )
    (path "/42d4e4f7-5d0c-497f-bb87-b30c04ad9f86/10be6398-a1a0-46e4-a5a7-6827a71235aa"
      (reference "U27") (unit 1) (value "74S153") (footprint "Package_DIP:DIP-16_W7.62mm")
    )
    (path "/42d4e4f7-5d0c-497f-bb87-b30c04ad9f86/bf88bbfe-3276-4fb8-8d06-2002e0a0dcb1"
      (reference "U28") (unit 1) (value "74S153") (footprint "Package_DIP:DIP-16_W7.62mm")
    )
    (path "/42d4e4f7-5d0c-497f-bb87-b30c04ad9f86/34be81c2-dcaf-47fa-984b-206850090067"
      (reference "U29") (unit 1) (value "74S153") (footprint "Package_DIP:DIP-16_W7.62mm")
    )
    (path "/5f417d86-4cd0-4426-a8a7-befaa992f0f0/19d96689-631d-45e7-89dc-f5b2ffc1733b"
      (reference "U30") (unit 1) (value "74S181") (footprint "Package_DIP:DIP-24_W15.24mm")
    )
    (path "/42d4e4f7-5d0c-497f-bb87-b30c04ad9f86/faa01fe5-b080-47aa-879f-277919354b21"
      (reference "U31") (unit 1) (value "74S153") (footprint "Package_DIP:DIP-16_W7.62mm")
    )
    (path "/42d4e4f7-5d0c-497f-bb87-b30c04ad9f86/808c6f84-e84b-4228-8c74-660b563d34a7"
      (reference "U32") (unit 1) (value "74S153") (footprint "Package_DIP:DIP-16_W7.62mm")
    )
    (path "/42d4e4f7-5d0c-497f-bb87-b30c04ad9f86/b818dd29-87b8-45ae-a777-413dc70d8ed5"
      (reference "U33") (unit 1) (value "74S153") (footprint "Package_DIP:DIP-16_W7.62mm")
    )
    (path "/fe0fc24b-0537-4b26-92df-b124fc2a291b/ad440bf0-aa1d-4025-b0f0-c70baa79b6c3"
      (reference "U34") (unit 1) (value "74S10") (footprint "Package_DIP:DIP-14_W7.62mm")
    )
    (path "/fe0fc24b-0537-4b26-92df-b124fc2a291b/9010cc56-4bf0-47a6-9cd6-f097786ab245"
      (reference "U34") (unit 2) (value "74S10") (footprint "Package_DIP:DIP-14_W7.62mm")
    )
    (path "/dbed59f0-bc8e-48d6-8f9b-2971a76ee3ea/c6442e8c-ffc5-401d-a7f6-648a1752c7e7"
      (reference "U34") (unit 3) (value "74S10") (footprint "Package_DIP:DIP-14_W7.62mm")
    )
    (path "/ffcdc695-9b29-4dc3-bf5f-3980055b61df/a4820a0f-0880-4179-89f0-4e4c9ae54e16"
      (reference "U34") (unit 4) (value "74S10") (footprint "Package_DIP:DIP-14_W7.62mm")
    )
    (path "/fe0fc24b-0537-4b26-92df-b124fc2a291b/e04d8a56-1ebc-4d57-a58f-b658d21a6dfa"
      (reference "U35") (unit 1) (value "74S00") (footprint "Package_DIP:DIP-14_W7.62mm")
    )
    (path "/fe0fc24b-0537-4b26-92df-b124fc2a291b/22919d77-6bc5-4887-912d-edafaa06ba25"
      (reference "U35") (unit 2) (value "74S00") (footprint "Package_DIP:DIP-14_W7.62mm")
    )
    (path "/fe0fc24b-0537-4b26-92df-b124fc2a291b/b3b08f82-c5ed-414e-a36c-4cd95c695ec5"
      (reference "U35") (unit 3) (value "74S00") (footprint "Package_DIP:DIP-14_W7.62mm")
    )
    (path "/ffcdc695-9b29-4dc3-bf5f-3980055b61df/380703d9-f5d2-46b2-b865-a6db7aee48e1"
      (reference "U35") (unit 4) (value "74S00") (footprint "Package_DIP:DIP-14_W7.62mm")
    )
    (path "/ffcdc695-9b29-4dc3-bf5f-3980055b61df/95cbd2cf-0a5c-4b17-8989-5774c090a8eb"
      (reference "U35") (unit 5) (value "74S00") (footprint "Package_DIP:DIP-14_W7.62mm")
    )
    (path "/42d4e4f7-5d0c-497f-bb87-b30c04ad9f86/ec94baba-82db-483b-b2a1-fd08553608ad"
      (reference "U36") (unit 1) (value "74S153") (footprint "Package_DIP:DIP-16_W7.62mm")
    )
    (path "/42d4e4f7-5d0c-497f-bb87-b30c04ad9f86/7b9ff414-4cbc-43b5-8471-622373105b6d"
      (reference "U37") (unit 1) (value "74S153") (footprint "Package_DIP:DIP-16_W7.62mm")
    )
    (path "/42d4e4f7-5d0c-497f-bb87-b30c04ad9f86/e7b28004-cf8c-4407-984f-2e40a88fc45b"
      (reference "U38") (unit 1) (value "74S153") (footprint "Package_DIP:DIP-16_W7.62mm")
    )
    (path "/5f417d86-4cd0-4426-a8a7-befaa992f0f0/95dcd916-5a32-4973-a254-22ef7f91bef4"
      (reference "U39") (unit 1) (value "74S04") (footprint "Package_DIP:DIP-14_W7.62mm")
    )
    (path "/ce0d1a0b-4f10-4b36-b5ac-c80729f9351e/0a8bfeb3-f171-48a4-aabe-be56c2ff0e68"
      (reference "U39") (unit 2) (value "74S04") (footprint "Package_DIP:DIP-14_W7.62mm")
    )
    (path "/5f417d86-4cd0-4426-a8a7-befaa992f0f0/0b4d19c3-160e-4564-8212-895a9e608180"
      (reference "U39") (unit 3) (value "74S04") (footprint "Package_DIP:DIP-14_W7.62mm")
    )
    (path "/5f417d86-4cd0-4426-a8a7-befaa992f0f0/e228c291-6b41-4aeb-8d1a-400fab278a58"
      (reference "U39") (unit 4) (value "74S04") (footprint "Package_DIP:DIP-14_W7.62mm")
    )
    (path "/5f417d86-4cd0-4426-a8a7-befaa992f0f0/3e248a8b-1980-4420-ad50-fbd23a012e49"
      (reference "U39") (unit 5) (value "74S04") (footprint "Package_DIP:DIP-14_W7.62mm")
    )
    (path "/5f417d86-4cd0-4426-a8a7-befaa992f0f0/a31840de-fd1e-43c2-87ed-fbdf9d239388"
      (reference "U39") (unit 6) (value "74S04") (footprint "Package_DIP:DIP-14_W7.62mm")
    )
    (path "/ffcdc695-9b29-4dc3-bf5f-3980055b61df/1d08c85e-4e6b-4498-80d5-7bbbd55d6c34"
      (reference "U39") (unit 7) (value "74S04") (footprint "Package_DIP:DIP-14_W7.62mm")
    )
    (path "/5f417d86-4cd0-4426-a8a7-befaa992f0f0/b4bf3dbb-e654-4ca1-840e-161602cc94ce"
      (reference "U40") (unit 1) (value "74S181") (footprint "Package_DIP:DIP-24_W15.24mm")
    )
    (path "/dbed59f0-bc8e-48d6-8f9b-2971a76ee3ea/b9c72011-53f8-4ca8-b08f-f092965e6dcc"
      (reference "U41") (unit 1) (value "74S04") (footprint "Package_DIP:DIP-14_W7.62mm")
    )
    (path "/dbed59f0-bc8e-48d6-8f9b-2971a76ee3ea/a426a4da-a378-4537-979b-0e64fc8dd099"
      (reference "U41") (unit 2) (value "74S04") (footprint "Package_DIP:DIP-14_W7.62mm")
    )
    (path "/ffcdc695-9b29-4dc3-bf5f-3980055b61df/f62ea7ec-6d4b-4461-84d1-ed534eb31d3d"
      (reference "U41") (unit 3) (value "74S04") (footprint "Package_DIP:DIP-14_W7.62mm")
    )
    (path "/ffcdc695-9b29-4dc3-bf5f-3980055b61df/12177ec2-0814-4e23-a41a-5f041b0dbf93"
      (reference "U41") (unit 4) (value "74S04") (footprint "Package_DIP:DIP-14_W7.62mm")
    )
    (path "/dbed59f0-bc8e-48d6-8f9b-2971a76ee3ea/c69cd1a7-2af2-41ce-b4fe-44eaff6cce86"
      (reference "U41") (unit 5) (value "74S04") (footprint "Package_DIP:DIP-14_W7.62mm")
    )
    (path "/ffcdc695-9b29-4dc3-bf5f-3980055b61df/c7f660f9-77f9-4105-abc3-4bcccf2f6c15"
      (reference "U41") (unit 6) (value "74S04") (footprint "Package_DIP:DIP-14_W7.62mm")
    )
    (path "/ffcdc695-9b29-4dc3-bf5f-3980055b61df/c08b5a54-470f-4573-b699-0ce0885a0e5c"
      (reference "U41") (unit 7) (value "74S04") (footprint "Package_DIP:DIP-14_W7.62mm")
    )
    (path "/dbed59f0-bc8e-48d6-8f9b-2971a76ee3ea/1e6461aa-28db-4f7c-bbee-6771408671ec"
      (reference "U42") (unit 1) (value "74S64") (footprint "Package_DIP:DIP-14_W7.62mm")
    )
    (path "/dbed59f0-bc8e-48d6-8f9b-2971a76ee3ea/5d23b05c-f41f-4897-b14c-3cb6f3658a4a"
      (reference "U43") (unit 1) (value "74S11") (footprint "Package_DIP:DIP-14_W7.62mm")
    )
    (path "/dbed59f0-bc8e-48d6-8f9b-2971a76ee3ea/4ff9d01f-fac0-4175-a50d-1347bd3d098c"
      (reference "U43") (unit 2) (value "74S11") (footprint "Package_DIP:DIP-14_W7.62mm")
    )
    (path "/dbed59f0-bc8e-48d6-8f9b-2971a76ee3ea/c19c4140-31a2-4780-a79b-b96fc8cbe624"
      (reference "U43") (unit 3) (value "74S11") (footprint "Package_DIP:DIP-14_W7.62mm")
    )
    (path "/ffcdc695-9b29-4dc3-bf5f-3980055b61df/a4bf4aba-6968-4fa7-88b2-deed647bca56"
      (reference "U43") (unit 4) (value "74S11") (footprint "Package_DIP:DIP-14_W7.62mm")
    )
    (path "/5f417d86-4cd0-4426-a8a7-befaa992f0f0/a4d2562a-a8cc-4b81-b3d7-c5af28a26a20"
      (reference "U44") (unit 1) (value "74S182") (footprint "Package_DIP:DIP-16_W7.62mm")
    )
    (path "/ce0d1a0b-4f10-4b36-b5ac-c80729f9351e/9559da81-a5e9-4ee0-91df-018fc1778088"
      (reference "U45") (unit 1) (value "74S181") (footprint "Package_DIP:DIP-24_W15.24mm")
    )
    (path "/ce0d1a0b-4f10-4b36-b5ac-c80729f9351e/303b73c4-0b31-4ccf-8806-0c027019df97"
      (reference "U46") (unit 1) (value "74S174") (footprint "Package_DIP:DIP-16_W7.62mm")
    )
    (path "/ce0d1a0b-4f10-4b36-b5ac-c80729f9351e/8e79f226-e6a0-4e04-8c33-8dab82ce6576"
      (reference "U47") (unit 1) (value "74S174") (footprint "Package_DIP:DIP-16_W7.62mm")
    )
    (path "/dbed59f0-bc8e-48d6-8f9b-2971a76ee3ea/960d3001-959b-4dfa-ba50-36c5d2a286f5"
      (reference "U48") (unit 1) (value "74S157") (footprint "Package_DIP:DIP-16_W7.62mm")
    )
    (path "/dbed59f0-bc8e-48d6-8f9b-2971a76ee3ea/4fd8b5b8-92ad-485b-a36a-c73151b3d619"
      (reference "U49") (unit 1) (value "74S157") (footprint "Package_DIP:DIP-16_W7.62mm")
    )
    (path "/dbed59f0-bc8e-48d6-8f9b-2971a76ee3ea/b6420525-31c5-4e7a-9a9f-81608aebc060"
      (reference "U50") (unit 1) (value "74S153") (footprint "Package_DIP:DIP-16_W7.62mm")
    )
    (path "/dbed59f0-bc8e-48d6-8f9b-2971a76ee3ea/208b5ea1-cae1-4e6b-b2e4-206fd1f3fae9"
      (reference "U51") (unit 1) (value "74S153") (footprint "Package_DIP:DIP-16_W7.62mm")
    )
    (path "/dbed59f0-bc8e-48d6-8f9b-2971a76ee3ea/e90da1e7-c00c-430d-ac4d-b91e3dc918e7"
      (reference "U52") (unit 1) (value "74S20") (footprint "Package_DIP:DIP-14_W7.62mm")
    )
    (path "/dbed59f0-bc8e-48d6-8f9b-2971a76ee3ea/eef3edf8-6cc0-44c8-b9d8-57c21e44360d"
      (reference "U52") (unit 2) (value "74S20") (footprint "Package_DIP:DIP-14_W7.62mm")
    )
    (path "/ffcdc695-9b29-4dc3-bf5f-3980055b61df/20d2f91f-6427-4a5a-9163-f211b499c3c4"
      (reference "U52") (unit 3) (value "74S20") (footprint "Package_DIP:DIP-14_W7.62mm")
    )
    (path "/ce0d1a0b-4f10-4b36-b5ac-c80729f9351e/79b60d14-ff55-4619-820e-316139692954"
      (reference "U53") (unit 1) (value "74S153") (footprint "Package_DIP:DIP-16_W7.62mm")
    )
    (path "/fe0fc24b-0537-4b26-92df-b124fc2a291b/b8c5b750-6bd5-4bf1-b6f6-f726e5888954"
      (reference "U54") (unit 1) (value "74S153") (footprint "Package_DIP:DIP-16_W7.62mm")
    )
    (path "/fe0fc24b-0537-4b26-92df-b124fc2a291b/9414b20b-cbb9-4186-b9f6-58a5aeb91de7"
      (reference "U55") (unit 1) (value "74S153") (footprint "Package_DIP:DIP-16_W7.62mm")
    )
    (path "/fe0fc24b-0537-4b26-92df-b124fc2a291b/b7574610-542d-4448-a823-0b207cc74a22"
      (reference "U56") (unit 1) (value "74S153") (footprint "Package_DIP:DIP-16_W7.62mm")
    )
    (path "/5f417d86-4cd0-4426-a8a7-befaa992f0f0/ae4532dd-9b38-4cc0-ad0b-a76d4ccd7654"
      (reference "U57") (unit 1) (value "74S11") (footprint "Package_DIP:DIP-14_W7.62mm")
    )
    (path "/dbed59f0-bc8e-48d6-8f9b-2971a76ee3ea/3f2ff862-97f3-440b-a0b7-c02f62ea48c9"
      (reference "U57") (unit 2) (value "74S11") (footprint "Package_DIP:DIP-14_W7.62mm")
    )
    (path "/dbed59f0-bc8e-48d6-8f9b-2971a76ee3ea/68d00064-77ef-4056-be34-bb0dc8677211"
      (reference "U57") (unit 3) (value "74S11") (footprint "Package_DIP:DIP-14_W7.62mm")
    )
    (path "/ffcdc695-9b29-4dc3-bf5f-3980055b61df/4ece170d-7a6c-4b8c-951d-edf02c9c1406"
      (reference "U57") (unit 4) (value "74S11") (footprint "Package_DIP:DIP-14_W7.62mm")
    )
    (path "/ce0d1a0b-4f10-4b36-b5ac-c80729f9351e/f963da1d-6ce5-469d-9156-4de8d1a38008"
      (reference "U58") (unit 1) (value "74S04") (footprint "Package_DIP:DIP-14_W7.62mm")
    )
    (path "/ce0d1a0b-4f10-4b36-b5ac-c80729f9351e/984dd203-5280-40ff-9a6f-384ef521e189"
      (reference "U58") (unit 2) (value "74S04") (footprint "Package_DIP:DIP-14_W7.62mm")
    )
    (path "/5f417d86-4cd0-4426-a8a7-befaa992f0f0/68cbd4b6-e412-4606-b7b3-b2ace124172a"
      (reference "U58") (unit 3) (value "74S04") (footprint "Package_DIP:DIP-14_W7.62mm")
    )
    (path "/ce0d1a0b-4f10-4b36-b5ac-c80729f9351e/23fe98b8-3789-4022-86cc-afe84ac6281f"
      (reference "U58") (unit 4) (value "74S04") (footprint "Package_DIP:DIP-14_W7.62mm")
    )
    (path "/ce0d1a0b-4f10-4b36-b5ac-c80729f9351e/3dc8401e-febd-4cab-a3a8-51edd8032f84"
      (reference "U58") (unit 5) (value "74S04") (footprint "Package_DIP:DIP-14_W7.62mm")
    )
    (path "/ce0d1a0b-4f10-4b36-b5ac-c80729f9351e/d6d573c4-cb0b-409b-b5a8-80b052078eed"
      (reference "U58") (unit 6) (value "74S04") (footprint "Package_DIP:DIP-14_W7.62mm")
    )
    (path "/ffcdc695-9b29-4dc3-bf5f-3980055b61df/cb80396e-ccfc-40b2-9ccf-a4ce9a96350b"
      (reference "U58") (unit 7) (value "74S04") (footprint "Package_DIP:DIP-14_W7.62mm")
    )
    (path "/ce0d1a0b-4f10-4b36-b5ac-c80729f9351e/840306d4-d370-41e6-853c-f80a88b4fdc2"
      (reference "U59") (unit 1) (value "74S153") (footprint "Package_DIP:DIP-16_W7.62mm")
    )
    (path "/ce0d1a0b-4f10-4b36-b5ac-c80729f9351e/095f4c62-bb16-4eef-89ee-785c8f851750"
      (reference "U60") (unit 1) (value "74S181") (footprint "Package_DIP:DIP-24_W15.24mm")
    )
    (path "/fe0fc24b-0537-4b26-92df-b124fc2a291b/233484bf-0d9b-4df0-b9d1-7dc4380865b8"
      (reference "U61") (unit 1) (value "74S153") (footprint "Package_DIP:DIP-16_W7.62mm")
    )
    (path "/fe0fc24b-0537-4b26-92df-b124fc2a291b/3d6d1ca4-f60d-4cdc-b0ab-e7fe21f4085f"
      (reference "U62") (unit 1) (value "74S153") (footprint "Package_DIP:DIP-16_W7.62mm")
    )
    (path "/fe0fc24b-0537-4b26-92df-b124fc2a291b/1d6c1f71-9cb2-4815-8126-7e7767d86a35"
      (reference "U63") (unit 1) (value "74S153") (footprint "Package_DIP:DIP-16_W7.62mm")
    )
    (path "/5f417d86-4cd0-4426-a8a7-befaa992f0f0/8fe75815-94b3-49b3-9d48-c10cfe3c8116"
      (reference "U64") (unit 1) (value "74S153") (footprint "Package_DIP:DIP-16_W7.62mm")
    )
    (path "/5f417d86-4cd0-4426-a8a7-befaa992f0f0/0bb994d5-0d3c-4aa4-9e33-05e07e193513"
      (reference "U65") (unit 1) (value "74S153") (footprint "Package_DIP:DIP-16_W7.62mm")
    )
    (path "/5f417d86-4cd0-4426-a8a7-befaa992f0f0/7144f622-f194-46f5-88db-3ddebf7a8228"
      (reference "U66") (unit 1) (value "74S174") (footprint "Package_DIP:DIP-16_W7.62mm")
    )
    (path "/5f417d86-4cd0-4426-a8a7-befaa992f0f0/2b26a066-60b2-4043-a61e-c9a0294164b5"
      (reference "U67") (unit 1) (value "74S174") (footprint "Package_DIP:DIP-16_W7.62mm")
    )
    (path "/5f417d86-4cd0-4426-a8a7-befaa992f0f0/902b7679-dcfa-45ee-b207-44d162ee7111"
      (reference "U68") (unit 1) (value "74S153") (footprint "Package_DIP:DIP-16_W7.62mm")
    )
    (path "/ce0d1a0b-4f10-4b36-b5ac-c80729f9351e/b4c70cf4-d534-403e-a363-9bbe6fb5ce93"
      (reference "U69") (unit 1) (value "74S174") (footprint "Package_DIP:DIP-16_W7.62mm")
    )
    (path "/ce0d1a0b-4f10-4b36-b5ac-c80729f9351e/f895c6dd-97f3-45d2-b36f-e0df31447aa2"
      (reference "U70") (unit 1) (value "74S174") (footprint "Package_DIP:DIP-16_W7.62mm")
    )
    (path "/fe0fc24b-0537-4b26-92df-b124fc2a291b/e652440b-00cf-4757-9b0b-d975e2170392"
      (reference "U71") (unit 1) (value "74S153") (footprint "Package_DIP:DIP-16_W7.62mm")
    )
    (path "/fe0fc24b-0537-4b26-92df-b124fc2a291b/edf47dc8-3db7-4ddf-8a7f-3f7581176548"
      (reference "U72") (unit 1) (value "74S153") (footprint "Package_DIP:DIP-16_W7.62mm")
    )
    (path "/ffcdc695-9b29-4dc3-bf5f-3980055b61df/d9876e76-7926-4ea8-aac9-f953680aaaba"
      (reference "U73") (unit 1) (value "74S04") (footprint "Package_DIP:DIP-14_W7.62mm")
    )
    (path "/fe0fc24b-0537-4b26-92df-b124fc2a291b/5d3c76ae-176e-484a-a998-392b3588dc94"
      (reference "U73") (unit 2) (value "74S04") (footprint "Package_DIP:DIP-14_W7.62mm")
    )
    (path "/fe0fc24b-0537-4b26-92df-b124fc2a291b/7d7bc445-a390-4d6e-82d1-992a79d22a45"
      (reference "U73") (unit 3) (value "74S04") (footprint "Package_DIP:DIP-14_W7.62mm")
    )
    (path "/fe0fc24b-0537-4b26-92df-b124fc2a291b/0284429a-6596-4dfe-9471-e5de570b1c88"
      (reference "U73") (unit 4) (value "74S04") (footprint "Package_DIP:DIP-14_W7.62mm")
    )
    (path "/fe0fc24b-0537-4b26-92df-b124fc2a291b/bf23e3d6-3f2e-40ed-8236-f933e736df8e"
      (reference "U73") (unit 5) (value "74S04") (footprint "Package_DIP:DIP-14_W7.62mm")
    )
    (path "/fe0fc24b-0537-4b26-92df-b124fc2a291b/97fbef35-b5da-4fa5-b4f1-d9bb37189374"
      (reference "U73") (unit 6) (value "74S04") (footprint "Package_DIP:DIP-14_W7.62mm")
    )
    (path "/ffcdc695-9b29-4dc3-bf5f-3980055b61df/660479c4-769c-44f9-9d83-985b298de290"
      (reference "U73") (unit 7) (value "74S04") (footprint "Package_DIP:DIP-14_W7.62mm")
    )
    (path "/ffcdc695-9b29-4dc3-bf5f-3980055b61df/02e28039-cdda-4616-9f4f-147a1bf71560"
      (reference "U74") (unit 1) (value "74S00") (footprint "Package_DIP:DIP-14_W7.62mm")
    )
    (path "/fe0fc24b-0537-4b26-92df-b124fc2a291b/1cd1bfc8-8a61-4aec-84c5-99fb6de9dc49"
      (reference "U74") (unit 2) (value "74S00") (footprint "Package_DIP:DIP-14_W7.62mm")
    )
    (path "/5f417d86-4cd0-4426-a8a7-befaa992f0f0/857067fa-4002-4273-8b04-c5d51dc01954"
      (reference "U74") (unit 3) (value "74S00") (footprint "Package_DIP:DIP-14_W7.62mm")
    )
    (path "/ffcdc695-9b29-4dc3-bf5f-3980055b61df/8ef90459-1076-42a5-9180-1dae768a79b5"
      (reference "U74") (unit 4) (value "74S00") (footprint "Package_DIP:DIP-14_W7.62mm")
    )
    (path "/ffcdc695-9b29-4dc3-bf5f-3980055b61df/e97a9e4a-a31a-48b7-9b1a-bbc2607fb2b4"
      (reference "U74") (unit 5) (value "74S00") (footprint "Package_DIP:DIP-14_W7.62mm")
    )
    (path "/42d4e4f7-5d0c-497f-bb87-b30c04ad9f86/2808e5bc-a3fa-4d51-92a2-dcc1b9de1d11"
      (reference "U75") (unit 1) (value "74S11") (footprint "Package_DIP:DIP-14_W7.62mm")
    )
    (path "/fe0fc24b-0537-4b26-92df-b124fc2a291b/910e5b77-409f-4231-bc61-47e52edf4c85"
      (reference "U75") (unit 2) (value "74S11") (footprint "Package_DIP:DIP-14_W7.62mm")
    )
    (path "/dbed59f0-bc8e-48d6-8f9b-2971a76ee3ea/69a70af9-0619-48e5-ae7c-4991134b9817"
      (reference "U75") (unit 3) (value "74S11") (footprint "Package_DIP:DIP-14_W7.62mm")
    )
    (path "/ffcdc695-9b29-4dc3-bf5f-3980055b61df/2e80ba26-71d4-4f56-b7ff-f45d00498c09"
      (reference "U75") (unit 4) (value "74S11") (footprint "Package_DIP:DIP-14_W7.62mm")
    )
    (path "/5f417d86-4cd0-4426-a8a7-befaa992f0f0/9dbaac3b-b8d9-4c77-9ab4-010de6f2d417"
      (reference "U76") (unit 1) (value "74S04") (footprint "Package_DIP:DIP-14_W7.62mm")
    )
    (path "/5f417d86-4cd0-4426-a8a7-befaa992f0f0/9d013051-0535-42a6-b8fb-f9fab12e9bab"
      (reference "U76") (unit 2) (value "74S04") (footprint "Package_DIP:DIP-14_W7.62mm")
    )
    (path "/5f417d86-4cd0-4426-a8a7-befaa992f0f0/e4948c77-0d3f-4f58-a12d-dfaf6b254519"
      (reference "U76") (unit 3) (value "74S04") (footprint "Package_DIP:DIP-14_W7.62mm")
    )
    (path "/5f417d86-4cd0-4426-a8a7-befaa992f0f0/738eef4d-cde9-4456-a045-71c29163f05d"
      (reference "U76") (unit 4) (value "74S04") (footprint "Package_DIP:DIP-14_W7.62mm")
    )
    (path "/5f417d86-4cd0-4426-a8a7-befaa992f0f0/b083c778-e574-4515-a48f-66fd72c6a742"
      (reference "U76") (unit 5) (value "74S04") (footprint "Package_DIP:DIP-14_W7.62mm")
    )
    (path "/42d4e4f7-5d0c-497f-bb87-b30c04ad9f86/d582fb17-1b61-4e3c-9246-237eed4bdd70"
      (reference "U76") (unit 6) (value "74S04") (footprint "Package_DIP:DIP-14_W7.62mm")
    )
    (path "/ffcdc695-9b29-4dc3-bf5f-3980055b61df/587bb7a2-41c7-478e-924e-d8bb4101c789"
      (reference "U76") (unit 7) (value "74S04") (footprint "Package_DIP:DIP-14_W7.62mm")
    )
    (path "/ce0d1a0b-4f10-4b36-b5ac-c80729f9351e/4d186b80-7c79-4f27-acbd-bdb7f7114d49"
      (reference "U77") (unit 1) (value "74S153") (footprint "Package_DIP:DIP-16_W7.62mm")
    )
    (path "/5f417d86-4cd0-4426-a8a7-befaa992f0f0/f4486840-2913-45d3-8643-bbd468da4881"
      (reference "U78") (unit 1) (value "74S153") (footprint "Package_DIP:DIP-16_W7.62mm")
    )
    (path "/5f417d86-4cd0-4426-a8a7-befaa992f0f0/3b7f0654-6e72-42da-835b-cdd9d7384bf4"
      (reference "U79") (unit 1) (value "74S08") (footprint "Package_DIP:DIP-14_W7.62mm")
    )
    (path "/ce0d1a0b-4f10-4b36-b5ac-c80729f9351e/3a0c2da1-1591-4743-9b15-278e8de2a7f4"
      (reference "U79") (unit 2) (value "74S08") (footprint "Package_DIP:DIP-14_W7.62mm")
    )
    (path "/ffcdc695-9b29-4dc3-bf5f-3980055b61df/ee9bce95-24d3-49e1-bc92-941b5fd1abb3"
      (reference "U79") (unit 3) (value "74S08") (footprint "Package_DIP:DIP-14_W7.62mm")
    )
    (path "/ffcdc695-9b29-4dc3-bf5f-3980055b61df/3e1d94a7-d403-4705-9e24-19f9b1faaaea"
      (reference "U79") (unit 4) (value "74S08") (footprint "Package_DIP:DIP-14_W7.62mm")
    )
    (path "/ffcdc695-9b29-4dc3-bf5f-3980055b61df/7aba0737-e394-4451-a2e6-782dff4fbd4f"
      (reference "U79") (unit 5) (value "74S08") (footprint "Package_DIP:DIP-14_W7.62mm")
    )
  )
)
